0.006571453605537545
german : 10
half : 13
govern : 42
elimin : 1
slower : 3
without : 1
oversea : 3
tea : 1
would : 51
upwardli : 1
mathemat : 2
pick : 2
kta : 1
groov : 1
baker : 4
journalist : 1
befor : 1
left : 4
seri : 3
much : 10
govett : 1
lire : 3
role : 1
ahead : 1
turn : 3
suffici : 2
miner : 1
elect : 7
polici : 17
gmt : 4
result : 9
gold : 1
expedit : 1
commission : 1
after : 2
hand : 1
rebuild : 2
a : 18
rowena : 2
address : 2
g : 1
gnp : 3
h : 1
i : 7
tradit : 2
k : 22
union : 2
m : 3
n : 6
soviet : 4
o : 1
the : 221
p : 1
sale : 7
s : 221
ankara : 2
thi : 23
t : 1
u : 81
v : 1
wholesal : 1
z : 6
thu : 2
standard : 5
taipei : 1
correct : 1
deplor : 2
good : 19
got : 2
wish : 1
sharpli : 11
exceed : 3
pai : 3
advis : 1
export : 113
jakarta : 1
area : 3
rome : 1
shipment : 1
european : 8
textil : 1
reduc : 13
cuurent : 1
andrew : 2
gone : 4
lack : 2
cif : 1
fortun : 2
treasuri : 7
medium : 4
exchequ : 4
determin : 3
denmark : 4
germani : 16
combin : 1
lend : 5
pct : 195
worsen : 3
societi : 1
unawar : 1
perform : 8
peak : 2
energi : 3
better : 7
with : 1
tinker : 2
china : 25
there : 4
victori : 2
well : 14
analyst : 14
servici : 1
inject : 2
outlook : 6
sydnei : 4
mortgag : 2
american : 1
hamper : 2
approach : 1
per : 3
write : 2
wage : 4
order : 1
raini : 1
period : 12
capabl : 2
africa : 1
revenu : 3
dismiss : 1
indonesia : 5
seoul : 7
reform : 3
ever : 1
even : 5
aris : 1
selloff : 1
undermin : 2
proport : 1
larger : 1
buoi : 2
increas : 40
save : 1
institut : 5
protection : 2
costli : 1
particularli : 3
top : 3
andr : 1
slowli : 3
avail : 3
product : 13
laid : 1
question : 3
bought : 1
spirit : 1
littl : 4
frankfurt : 2
rose : 65
minor : 2
fuel : 2
upon : 1
fuer : 1
cox : 1
republ : 1
wake : 2
earlier : 49
biggest : 2
cpb : 15
whether : 2
govt : 1
west : 17
stock : 5
turnabout : 2
suspend : 1
guilder : 15
evid : 1
law : 1
comparison : 2
less : 7
revers : 4
welcom : 4
try : 4
governor : 1
basic : 5
yaobang : 1
chicken : 1
busi : 1
fridai : 2
respons : 2
debtor : 1
distanc : 1
design : 1
land : 2
encourag : 8
chief : 3
accord : 6
aircraft : 1
investor : 2
plu : 1
respond : 4
cso : 4
angl : 2
caught : 1
disclos : 1
cultur : 1
japan : 41
led : 2
concern : 5
let : 1
state : 9
coffe : 4
element : 3
yesterdai : 8
gener : 6
pace : 2
want : 1
forecast : 68
shrank : 1
each : 1
restraint : 3
kong : 4
heldr : 1
wane : 1
must : 6
peke : 2
suppli : 3
liabil : 3
cut : 31
yeutter : 1
realist : 1
document : 1
ward : 1
two : 22
stimul : 2
chase : 2
freer : 1
scenario : 2
prais : 1
larg : 10
tariff : 2
acceler : 1
anoth : 4
latest : 5
think : 3
surplus : 2
manhattan : 2
revalu : 7
speech : 4
quit : 1
thing : 2
prepar : 2
lynch : 1
structur : 5
late : 1
outpac : 1
budget : 27
given : 5
actual : 1
tension : 1
pre : 1
last : 67
adapt : 2
eric : 1
weight : 6
doubt : 2
develop : 7
warn : 5
nomin : 3
wari : 1
receipt : 2
full : 11
depreci : 3
eonomist : 1
effort : 1
peru : 6
steadi : 4
unsmooth : 2
prudent : 2
yen : 18
center : 1
start : 3
yet : 2
earli : 6
equal : 3
fallen : 4
awai : 2
deregul : 1
inexperi : 1
fund : 3
chang : 10
multin : 1
paid : 2
short : 11
financi : 10
time : 9
downward : 5
pall : 1
palm : 1
compris : 1
program : 1
percept : 1
three : 15
put : 7
climb : 3
sweden : 3
furiou : 1
season : 35
deflat : 1
payment : 62
vicker : 1
attain : 1
enter : 2
heavili : 2
applic : 3
russian : 2
pressur : 6
preced : 1
light : 2
quot : 4
philosophi : 1
expansionari : 2
merril : 1
tabl : 1
simonsen : 3
januari : 155
hoar : 1
anti : 1
lot : 1
repeatedli : 1
rebound : 2
deputi : 1
low : 13
budgetari : 2
barrel : 6
outcom : 2
municip : 1
dai : 2
marplan : 1
flatten : 2
hit : 3
major : 8
shown : 1
inspir : 1
group : 6
gross : 6
omiss : 3
particular : 1
done : 1
soar : 3
exchang : 16
sustain : 6
achiev : 3
wiesbaden : 2
volcker : 8
bourgeoi : 1
incom : 12
part : 6
bilater : 1
nzier : 5
novemb : 1
unexpect : 1
point : 17
east : 1
multilater : 1
nicol : 2
relief : 1
pari : 4
ltd : 6
process : 4
built : 1
attribut : 7
clear : 4
third : 30
dramat : 1
build : 4
mean : 4
earn : 2
neither : 1
stablis : 1
cooper : 5
further : 1
account : 142
japanes : 11
intellig : 2
addit : 2
parliament : 1
satisifi : 1
mostli : 1
trim : 1
record : 39
crisi : 5
partli : 3
lloyd : 1
you : 1
jump : 6
prime : 2
pass : 1
past : 2
impact : 6
bill : 5
enthusiast : 1
percentag : 2
especi : 1
whose : 3
ralli : 1
buyer : 2
senior : 2
juli : 3
anza : 1
corpor : 1
releas : 6
peter : 3
term : 46
fluctuat : 4
supplementari : 1
march : 68
reuter : 11
june : 9
meet : 5
stage : 1
borrow : 19
paul : 5
spotlight : 1
quarter : 88
buttros : 3
london : 10
bundesbank : 3
reserv : 8
down : 3
hold : 2
later : 2
elabor : 1
rubber : 1
margaret : 1
talk : 3
signal : 1
tribut : 2
richard : 3
repli : 1
take : 10
month : 40
blame : 2
final : 4
octob : 12
perhap : 1
interven : 1
some : 2
loan : 6
rather : 4
back : 5
compani : 3
underli : 3
solv : 1
primarili : 1
stabl : 1
sold : 2
lumber : 1
manufactur : 7
relax : 1
custom : 3
stirl : 1
dlr : 293
nuanc : 1
advers : 1
home : 1
condit : 3
although : 3
iron : 2
worthi : 1
relat : 6
diplomat : 4
grant : 1
holt : 2
spokeswoman : 2
explain : 1
basket : 3
discount : 2
visibl : 11
convert : 1
zhang : 1
construct : 1
hope : 5
elsewher : 3
dearli : 1
soon : 2
influenc : 3
america : 1
action : 3
latin : 2
fear : 4
creat : 2
lisbon : 2
incent : 2
made : 4
buoyanc : 1
manag : 5
auster : 1
hong : 4
purchas : 6
field : 2
hardest : 2
singl : 2
upset : 1
britain : 5
natur : 2
paramet : 1
sumatran : 1
summer : 1
eight : 11
machineri : 1
robert : 1
plantat : 1
mai : 5
member : 4
commiss : 2
quarterli : 2
stand : 5
renminbi : 1
heavi : 1
stanc : 1
independ : 3
within : 6
could : 9
urg : 3
prospect : 7
exercis : 1
chri : 2
probabl : 3
return : 1
cheaper : 2
usa : 1
evapor : 2
main : 5
british : 4
nigel : 4
adher : 2
commun : 7
credit : 4
exactli : 2
regardless : 1
upward : 2
baht : 9
psbr : 6
bangkok : 1
mahn : 2
clayton : 1
servic : 15
transit : 1
tast : 1
present : 6
curtail : 1
sentiment : 5
sterl : 12
hous : 1
bale : 1
expeditur : 1
make : 10
capit : 23
spokesman : 4
competit : 6
due : 19
domest : 22
underlin : 1
inou : 1
inform : 1
depend : 1
commit : 1
opec : 2
danger : 3
curb : 2
crash : 2
cover : 2
firm : 10
bank : 50
reflect : 2
stick : 2
band : 1
entrepot : 1
immedi : 2
august : 2
impati : 1
ministri : 17
benefit : 3
boost : 9
programm : 2
nevertheless : 2
monthli : 3
acquisit : 2
long : 16
announc : 5
fell : 35
woong : 1
into : 1
unless : 1
excess : 3
ian : 3
industri : 16
defin : 1
free : 1
though : 1
polit : 7
appeal : 1
entrepreneur : 1
commerc : 9
appear : 6
face : 3
simon : 1
jnauari : 2
household : 1
progress : 3
oper : 1
mani : 3
open : 6
ratio : 2
seller : 1
monei : 8
invest : 23
rapid : 2
project : 2
seven : 2
sever : 3
loos : 1
restrain : 2
tobacco : 1
five : 17
look : 12
mln : 259
qtr : 7
repres : 2
korea : 18
netherland : 1
guid : 2
allow : 1
arriv : 1
pierson : 3
rule : 1
everi : 1
organis : 6
peopl : 1
appli : 1
interest : 24
outturn : 3
commod : 2
presid : 1
mask : 1
exposur : 1
again : 4
insur : 1
dramatis : 2
step : 3
comment : 4
basi : 9
excit : 1
excis : 1
mark : 49
base : 14
employ : 3
septemb : 12
minist : 22
trend : 8
whole : 3
preliminari : 3
agricultur : 5
loss : 5
businessmen : 4
vulner : 3
price : 39
lost : 1
still : 7
work : 4
lose : 2
hesit : 1
declin : 25
wors : 2
solomon : 4
fail : 2
toward : 1
restructur : 1
among : 5
spain : 4
singapor : 1
healthier : 1
impos : 2
requir : 1
foreign : 50
fall : 44
eas : 3
decreas : 6
reced : 1
pois : 2
bnpp : 1
bullish : 2
appropri : 3
opinion : 2
outflow : 7
agenc : 7
liquid : 2
cannot : 1
averag : 14
first : 18
mainli : 4
prefer : 1
fewer : 1
poll : 8
float : 1
tight : 1
monetari : 8
chamber : 1
portfolio : 1
clearli : 1
depart : 30
portugues : 1
swedish : 1
offset : 3
ill : 1
edg : 2
anticip : 2
middai : 2
phillip : 2
provision : 23
error : 3
talli : 2
network : 1
liber : 2
public : 11
spend : 12
confeder : 2
track : 1
inc : 2
banqu : 1
repay : 4
overal : 10
trader : 1
improv : 25
emploi : 1
unlik : 5
repai : 1
trade : 177
round : 2
growth : 51
perman : 2
communist : 1
exception : 2
year : 188
dutch : 11
markedli : 1
temporari : 1
describ : 2
substanti : 6
poor : 6
quota : 1
farm : 1
rag : 2
volum : 10
near : 2
aberr : 2
agreement : 3
unchangd : 1
raw : 3
merchant : 1
conserv : 5
stop : 4
economi : 17
detail : 2
eic : 2
degener : 1
aaa : 2
least : 1
dollar : 44
eiu : 13
measur : 12
close : 3
deduc : 1
expenditur : 3
abl : 1
neck : 2
descent : 2
materi : 3
swing : 3
industrialis : 3
fast : 3
merchandis : 14
uncompetit : 1
exce : 3
autonomi : 1
nine : 6
fellner : 4
rural : 3
contribut : 9
bureacraci : 1
aggreg : 2
post : 10
rel : 1
mideast : 1
initi : 2
chines : 2
need : 5
pose : 1
steadili : 1
equival : 3
insist : 1
scrimgeour : 1
liberalis : 2
respect : 1
retreat : 2
transact : 7
canada : 10
washington : 5
trust : 1
antara : 3
famili : 1
consequ : 1
prevent : 2
wroblewski : 4
medan : 1
scope : 1
end : 24
inabl : 1
otherwis : 2
aggrav : 1
downgrad : 3
rha : 2
howev : 12
rice : 1
estim : 15
special : 2
steadfast : 1
togeth : 3
agre : 2
escudo : 6
albeit : 1
skinner : 1
slid : 2
smaller : 2
sensit : 2
told : 8
challeng : 9
cabl : 1
ago : 21
slightli : 13
number : 3
identifi : 1
narrow : 45
yearago : 2
invis : 19
newli : 2
tough : 2
system : 2
likelihood : 1
driven : 1
partial : 2
issu : 6
aid : 4
jame : 3
other : 3
aim : 2
turnaround : 5
drastic : 1
slowdown : 1
swell : 2
local : 8
resum : 2
arifin : 1
crude : 2
manufacturer : 1
pictur : 1
yield : 3
share : 2
deficit : 235
holidai : 1
chairman : 3
sharp : 5
surpris : 1
slip : 4
citi : 1
cite : 1
exampl : 1
creditworthi : 4
cent : 4
spur : 1
neg : 2
imbal : 2
bureau : 15
net : 29
whelan : 2
oblig : 1
ali : 1
bode : 1
new : 27
steeper : 2
took : 2
unreservedli : 2
read : 2
todai : 10
touch : 1
rememb : 1
real : 6
unit : 9
alreadi : 5
bodi : 1
gear : 1
amp : 1
around : 16
favour : 3
calcul : 5
and : 6
predict : 1
stockbrok : 1
gilt : 4
dump : 1
ani : 2
abroad : 7
haven : 1
financ : 13
promissori : 1
transport : 2
strategi : 2
korean : 5
anz : 1
photocopi : 1
territori : 1
previou : 9
ouko : 5
jeffrei : 6
reason : 5
unemploy : 1
turkei : 4
maintain : 7
shift : 2
ship : 1
echo : 2
compon : 1
jan : 6
annual : 4
zealand : 7
siregar : 2
epac : 2
margin : 3
remain : 16
demand : 14
mount : 1
slow : 7
regrett : 1
worth : 2
taken : 5
came : 2
capel : 2
departn : 1
popular : 2
vice : 1
black : 2
broker : 4
balanc : 54
holden : 1
call : 6
kunio : 1
ask : 1
dilemma : 1
strength : 4
florida : 2
swung : 3
run : 3
refin : 1
research : 4
worri : 3
technolog : 2
either : 2
acknowledg : 2
counterpart : 1
thailand : 2
huge : 2
difficulti : 1
might : 5
nni : 1
dure : 1
longer : 2
privat : 11
consum : 10
name : 1
inflow : 15
crop : 1
notabl : 2
next : 7
import : 86
reli : 2
attract : 1
show : 56
non : 23
not : 2
central : 12
capac : 2
jacksonvil : 2
nearli : 5
introduct : 1
now : 1
statement : 13
factor : 8
wai : 5
negoti : 2
enabl : 1
jardin : 2
associ : 2
europ : 7
duti : 3
war : 1
greet : 1
grew : 8
bond : 9
target : 10
tokyo : 4
deliveri : 2
nervous : 1
african : 2
risk : 3
rise : 44
underpin : 1
suddenli : 3
criteria : 1
significantli : 2
modest : 3
plai : 1
anxious : 1
far : 5
quickli : 6
broad : 4
catch : 2
plan : 15
greater : 1
cash : 1
case : 1
give : 5
item : 5
nairobi : 1
sumatra : 2
collaps : 2
explicit : 1
studi : 1
consid : 1
propens : 1
slide : 2
futur : 6
allevi : 1
card : 2
keat : 17
care : 3
stockholm : 2
implicit : 2
mitig : 1
australian : 13
direct : 7
pattern : 3
surplu : 175
labour : 3
gain : 2
caus : 3
mechan : 1
stress : 4
consumpt : 2
more : 4
alon : 2
great : 3
morn : 5
bore : 1
inflat : 22
gemeinwirtschaft : 1
advanc : 1
certain : 4
board : 4
feb : 7
fed : 1
broadli : 3
taxat : 1
simpli : 1
england : 2
dispos : 1
rais : 4
both : 1
market : 39
warburg : 3
most : 2
keen : 1
shill : 4
intensifi : 1
transfer : 9
phrase : 1
turkish : 2
effect : 9
keep : 5
cumul : 6
option : 3
appreci : 5
largest : 1
dhaka : 1
continu : 18
strive : 1
billion : 538
sai : 8
david : 1
profit : 2
rest : 1
amount : 2
move : 4
saw : 4
tremend : 1
also : 15
enough : 1
liabl : 1
kingdom : 1
differ : 1
spread : 1
surpass : 1
histor : 1
situat : 2
unrequit : 1
fleme : 1
front : 2
confid : 1
bad : 2
potenti : 1
bae : 1
bring : 8
complet : 1
reneg : 1
ban : 1
offer : 2
rand : 6
unsettl : 1
nza : 1
draft : 1
loath : 1
pension : 1
rang : 2
despit : 5
aa : 3
posit : 7
surg : 4
ad : 17
sure : 5
grow : 7
shrink : 2
secur : 17
an : 2
former : 1
ar : 1
as : 3
at : 1
drive : 2
strong : 7
prove : 2
allianc : 1
affect : 6
sea : 1
see : 8
domin : 1
search : 1
sudden : 1
by : 7
franc : 13
wheat : 3
subdu : 1
fla : 2
contain : 4
set : 6
edgar : 1
willi : 1
co : 1
figur : 66
partner : 2
confin : 1
somewhat : 1
voter : 1
equiti : 1
interview : 1
de : 3
oecd : 10
featur : 3
offic : 10
extern : 7
parti : 3
midsess : 1
outlin : 1
won : 9
contact : 2
ec : 15
bfg : 1
signific : 6
en : 1
carri : 2
neill : 1
ex : 1
aggress : 1
adjust : 37
fob : 4
activ : 2
western : 7
debt : 20
hispan : 2
compar : 47
compet : 1
indic : 5
delai : 1
origin : 2
for : 9
exclud : 4
depress : 2
random : 1
rate : 60
sanction : 1
skill : 2
await : 1
ga : 3
promot : 1
internation : 1
settl : 2
over : 2
six : 8
someth : 1
gm : 2
go : 8
kept : 4
dinner : 1
treasur : 3
form : 1
pariti : 1
publish : 3
ha : 4
farmer : 2
avoid : 1
foundat : 1
he : 18
withdraw : 1
hi : 1
big : 1
select : 1
congress : 1
sick : 2
moroni : 1
bit : 1
hu : 1
output : 5
veri : 2
promis : 4
william : 1
four : 13
decemb : 46
moder : 4
decis : 3
if : 3
french : 4
crown : 10
in : 49
director : 1
lower : 31
tomorrow : 6
index : 10
is : 3
it : 35
inevit : 1
tigrel : 6
advisori : 1
reduct : 5
contrast : 2
gave : 3
je : 2
begin : 1
valu : 16
brought : 1
widen : 22
optim : 1
harwood : 5
believ : 2
world : 11
slump : 2
ottawa : 1
soybean : 3
side : 5
break : 2
overtli : 1
lawson : 14
itali : 5
comfort : 1
unrevis : 1
centraal : 1
report : 16
tendenc : 1
expans : 3
constant : 3
receiv : 1
fsical : 1
sign : 3
cotton : 1
while : 4
second : 6
plaza : 1
high : 15
faster : 2
split : 1
than : 2
limit : 3
claim : 1
pessimist : 1
denomin : 1
petroleum : 3
administr : 1
level : 9
author : 20
survei : 2
thai : 1
establish : 1
mammoth : 1
deter : 2
expand : 3
canberra : 5
bob : 1
fiscal : 14
coal : 1
produc : 6
unilater : 3
no : 1
behind : 2
student : 2
underscor : 3
roost : 1
schedul : 1
total : 26
oil : 37
of : 10
possibl : 3
involv : 1
fight : 1
on : 34
blah : 39
purpos : 1
economist : 29
social : 3
embark : 1
ow : 2
control : 2
friction : 1
confer : 1
drew : 2
highli : 2
extrem : 3
equip : 1
offici : 40
easier : 1
nation : 14
stood : 3
censu : 1
necessari : 4
hinder : 1
strengthen : 2
damag : 1
drawn : 1
recent : 9
alcohol : 1
stg : 42
dent : 1
australia : 15
them : 1
thei : 5
accept : 1
rd : 1
indiffer : 1
re : 3
includ : 7
adopt : 3
madrid : 1
autumn : 1
motor : 4
currenc : 23
secretari : 1
cautiou : 3
sum : 1
yearli : 1
seen : 7
kei : 4
seem : 6
kenya : 7
current : 131
democrat : 1
disturb : 2
persist : 1
so : 1
caution : 3
thatcher : 1
calendar : 6
intern : 8
launch : 4
confirm : 3
increasingli : 5
th : 5
bui : 8
dealer : 5
assist : 1
to : 12
fourth : 31
but : 16
shortfal : 15
joint : 2
expens : 1
willing : 2
express : 1
deterior : 3
zero : 2
countri : 21
assumpt : 3
up : 6
written : 2
sector : 16
us : 1
substitut : 1
taiwan : 5
chancellor : 7
recess : 3
know : 1
bolster : 1
vs : 5
support : 7
sinc : 9
higher : 8
drop : 18
planbureau : 1
brazil : 1
idea : 1
wa : 1
cold : 3
kim : 4
unchang : 6
we : 11
wellington : 4
clercq : 2
gap : 4
queri : 1
choic : 1
normal : 2
gradual : 1
socialist : 1
slight : 1
previous : 3
wide : 4
newspap : 2
weaker : 5
anthoni : 1
drought : 1
bangladesh : 2
sourc : 3
individu : 1
held : 2
reach : 5
react : 3
rasmussen : 2
april : 3
problem : 3
scant : 2
review : 1
tighter : 2
weather : 6
sluggish : 6
come : 9
credibl : 2
banker : 11
push : 1
gdp : 16
johannesburg : 1
haoruo : 1
lift : 1
feder : 7
regist : 2
henc : 1
educ : 8
south : 16
north : 2
firebal : 2
weak : 10
climat : 2
flat : 4
get : 2
stabilis : 1
statist : 23
power : 1
semi : 1
place : 1
accur : 1
leav : 2
regular : 2
danish : 2
reviv : 1
militari : 1
observ : 1
lead : 1
expect : 62
help : 8
assess : 3
unadjust : 9
revis : 37
asset : 5
corp : 2
data : 10
corn : 1
sound : 2
begun : 3
separ : 1
barrier : 2
hagu : 2
econom : 38
copenhagen : 2
portug : 8
upcom : 1
indirect : 1
like : 16
tax : 10
core : 2
council : 1
here : 1
note : 17
week : 6
line : 3
noth : 1
becom : 7
kenyan : 4
car : 4
satisfi : 1
februari : 152
recoveri : 2
said : 340
provid : 2
realli : 2
smooth : 10
greatest : 2
cost : 8
lima : 2
will : 4
readi : 2
sputnik : 4
passeng : 2
match : 2
intens : 2
follow : 6
categori : 1
york : 2
disciplin : 1
brussel : 1
intend : 1
