1.7523876281433454E-4
septemb : 1
depend : 1
govern : 3
year : 1
palm : 4
shift : 1
type : 1
ban : 1
modest : 1
agricultur : 6
output : 2
tea : 1
loss : 1
promis : 1
crush : 1
copra : 6
price : 4
annual : 2
outbreak : 2
coffe : 1
devalu : 2
oct : 1
pest : 2
margin : 1
grow : 1
varieti : 1
reluct : 1
lower : 1
revenu : 1
forecast : 4
it : 1
indonesia : 7
declin : 3
demand : 1
lowest : 1
wereng : 2
slow : 1
includ : 1
even : 1
plant : 2
suppli : 1
brought : 1
seed : 1
increas : 6
mid : 1
tonn : 13
believ : 1
two : 1
gain : 3
crude : 1
result : 1
caus : 1
fall : 5
known : 1
yield : 2
drawdown : 1
larg : 1
slump : 1
wheat : 2
indonesian : 2
calendar : 4
soybean : 5
product : 12
kernel : 1
littl : 1
march : 2
food : 1
the : 10
prospect : 1
expect : 3
s : 10
u : 2
sugarcan : 1
report : 10
constraint : 1
to : 2
but : 1
corn : 1
cotton : 1
forc : 1
rupiah : 2
zero : 1
neg : 1
countri : 1
shortag : 1
stapl : 1
rubber : 2
limit : 1
insect : 1
insecticid : 1
econom : 1
stagnat : 1
stock : 1
sector : 1
export : 2
jakarta : 2
us : 2
new : 1
signific : 2
offset : 2
last : 2
like : 2
resist : 3
embassi : 3
reduc : 1
diseas : 1
brown : 1
look : 1
mln : 11
crop : 1
sinc : 1
compar : 1
import : 7
show : 1
plywood : 1
around : 1
respons : 1
oil : 5
rate : 2
land : 1
sai : 4
said : 4
commod : 2
pct : 7
sept : 1
slight : 1
accord : 1
overal : 3
perform : 2
duti : 1
also : 1
rice : 7
estim : 4
meal : 1
unlik : 2
philippin : 3
due : 1
dramat : 1
offici : 1
fertil : 1
domest : 1
farmer : 1
underlin : 1
growth : 5
hopper : 1
rise : 4
