0.015859108034697277
cancel : 2
german : 1
ccc : 10
farrmer : 1
half : 13
govern : 54
hall : 6
clinton : 1
analysi : 3
elimin : 2
slower : 1
without : 3
roughag : 1
oversea : 2
these : 3
tea : 1
would : 112
pick : 2
ten : 7
disastr : 2
saharan : 1
sometim : 2
solid : 1
serv : 2
tex : 3
reluct : 3
switzerland : 2
reenter : 1
stabil : 7
neutral : 5
orlean : 1
baker : 1
tallow : 3
journalist : 1
size : 2
util : 1
left : 4
illinoi : 6
temper : 1
kansa : 13
budg : 1
gmb : 2
much : 22
glenn : 1
wind : 2
object : 2
besid : 1
flight : 1
advoc : 1
ahead : 4
engag : 1
yellow : 7
roll : 6
turn : 2
suffici : 2
polici : 18
gmt : 1
result : 24
same : 2
expedit : 1
differenti : 10
after : 1
hand : 2
rebuild : 1
a : 38
deadlin : 1
c : 10
address : 1
d : 9
e : 4
kernel : 1
f : 8
i : 23
kenneth : 1
union : 52
k : 1
l : 1
m : 1
n : 3
soviet : 124
the : 326
halt : 5
sale : 82
r : 12
fieldwork : 2
s : 578
thi : 18
t : 17
u : 377
v : 7
sete : 1
x : 6
wholesal : 1
y : 4
discuss : 6
thu : 1
standard : 1
taipei : 4
correct : 2
shearson : 1
picardi : 1
confront : 1
got : 3
good : 17
sharpli : 6
exceed : 1
serious : 2
pai : 6
implement : 4
advis : 1
export : 187
jakarta : 1
pao : 1
area : 71
pat : 2
practic : 2
nationwid : 1
shipment : 51
cazal : 1
european : 32
reduc : 34
diseas : 1
list : 5
onto : 3
andrew : 1
lack : 4
resolut : 2
anybodi : 1
miscellan : 1
memphi : 2
weekli : 10
hundr : 2
ensur : 2
treasuri : 1
minim : 1
medium : 1
wisdom : 1
determin : 9
protectionist : 1
denmark : 1
germani : 4
root : 1
combin : 5
patrick : 1
hard : 4
live : 3
pct : 226
worsen : 1
pilot : 1
perform : 2
better : 4
with : 6
tinker : 2
argu : 1
china : 32
certif : 49
complaint : 6
there : 15
permit : 4
analyst : 43
well : 6
personnel : 1
outlook : 5
lichtenstein : 2
pocket : 1
empti : 5
catalog : 1
strongli : 3
desin : 1
american : 9
cargil : 8
desir : 1
approach : 2
outstand : 2
variabl : 1
flour : 8
mull : 1
per : 85
devalu : 3
propos : 30
flow : 3
order : 4
raini : 1
period : 20
africa : 15
went : 3
proceed : 3
hasn : 1
revenu : 2
understand : 1
indonesia : 5
melilla : 1
rukwa : 1
reform : 1
ever : 1
million : 2
fallow : 1
even : 9
bulk : 6
southeast : 2
jointli : 1
larger : 2
pellet : 1
increas : 57
hackmann : 6
save : 9
protection : 1
restrict : 5
articl : 1
kentucki : 1
mondai : 3
ton : 12
tom : 1
particularli : 3
top : 2
tian : 2
drawdown : 2
have : 2
slowli : 2
mandatori : 1
brownsvil : 1
roast : 1
avail : 11
product : 118
question : 4
bought : 22
roughli : 1
premier : 1
littl : 3
cheap : 5
garlem : 3
regard : 2
meanwhil : 3
pima : 1
balfour : 1
constraint : 1
rose : 9
thousand : 1
tide : 1
tonight : 2
prohibit : 1
instal : 2
overcast : 1
minor : 1
almost : 6
fuel : 1
motiv : 1
manner : 1
upon : 1
republ : 1
pig : 1
proce : 1
pik : 21
lag : 1
earlier : 30
biggest : 1
pin : 1
judgment : 1
whether : 18
cpc : 5
west : 11
worthwhil : 1
stock : 18
suspend : 3
guilder : 2
law : 7
comparison : 2
voic : 2
rout : 1
tri : 2
less : 22
basin : 1
mision : 3
revers : 2
absolut : 1
granari : 1
were : 1
snow : 1
ghent : 1
try : 2
governor : 4
basic : 5
hurdl : 1
lake : 1
expir : 4
busi : 10
unclear : 1
unanim : 1
fridai : 4
plywood : 1
respons : 7
reinforc : 2
pampa : 7
suspens : 1
design : 2
extra : 1
charent : 1
land : 18
redeem : 2
floor : 3
erdi : 1
levi : 5
encourag : 7
morioka : 1
accord : 34
forfeit : 1
hectar : 32
italian : 1
probe : 3
investor : 2
conduct : 3
plu : 2
lamb : 2
spoken : 1
cebeco : 1
crowlei : 2
japan : 31
cst : 2
prev : 8
led : 6
absorb : 1
uncertain : 2
enhanc : 10
concern : 7
lessen : 1
decad : 2
tigr : 1
let : 1
state : 69
cargo : 8
press : 2
coffe : 1
yesterdai : 22
cindasa : 3
began : 12
gener : 19
garza : 1
want : 10
pace : 1
night : 1
bueno : 27
casein : 2
forecast : 29
handelsraad : 1
processor : 1
evolv : 1
wereng : 2
kong : 1
must : 11
peke : 3
anim : 2
suppli : 37
overse : 1
provinc : 20
cut : 26
yeutter : 8
fring : 1
pod : 4
document : 1
two : 74
stimul : 3
found : 3
attack : 3
larg : 14
tariff : 9
acceler : 1
anoth : 13
freez : 3
advantag : 6
colombia : 1
latest : 12
pend : 2
think : 12
overreact : 1
yan : 1
hondura : 6
revalu : 1
concess : 1
telephon : 1
charg : 3
charl : 2
sugarcan : 3
watch : 1
speech : 3
quit : 2
polish : 1
reassess : 1
thing : 2
agrianalysi : 2
cwt : 5
definit : 6
pastur : 1
smith : 1
graviti : 1
lie : 1
prepar : 2
had : 3
lynch : 2
hai : 1
lip : 1
structur : 3
late : 12
stapl : 1
entir : 3
increa : 1
nonprogram : 1
reimburs : 1
budget : 13
authoris : 1
doubl : 2
given : 7
actual : 4
pre : 1
eastern : 1
last : 112
doubt : 1
weight : 2
develop : 7
subcommitte : 4
warn : 1
warm : 4
attent : 1
nichemen : 2
foodstuff : 1
coastal : 1
full : 3
baltimor : 1
pse : 6
effort : 5
peru : 3
steadi : 5
vote : 3
precis : 1
harvest : 80
durenberg : 1
argentin : 22
apparatu : 1
start : 7
yet : 5
ukrain : 1
managa : 1
earli : 12
equal : 5
chanc : 4
fallen : 1
hutton : 1
awai : 1
pty : 1
downsid : 1
fund : 5
chang : 34
cooler : 1
paid : 6
anywher : 1
short : 6
unusu : 3
financi : 1
time : 26
embargo : 1
downward : 2
circul : 2
afbf : 2
palm : 6
compris : 3
program : 112
dreyfu : 6
percept : 1
three : 29
put : 15
keith : 1
midi : 1
gestur : 1
ofici : 1
season : 62
payment : 66
enter : 5
attain : 1
tenant : 2
applic : 4
pest : 2
hfc : 8
pressur : 1
iraq : 4
preced : 4
persuad : 2
coast : 5
ethiopia : 4
light : 3
indefinit : 1
quot : 9
merril : 2
judg : 1
tabl : 1
mauritania : 1
lof : 1
arkansa : 2
januari : 23
inconceiv : 1
unknown : 19
lot : 3
panama : 1
lou : 2
deputi : 7
premium : 5
immin : 1
low : 14
congressman : 2
grown : 3
hamburg : 1
meant : 1
outcom : 2
ivori : 2
dole : 16
erod : 4
cycl : 1
awek : 2
travel : 1
paulo : 2
small : 8
door : 1
quick : 1
torrenti : 2
tell : 5
pakistan : 2
unavail : 1
dai : 17
dan : 3
dam : 1
hit : 4
major : 35
dar : 2
zone : 1
disast : 1
outlai : 6
jordan : 1
interrupt : 1
bear : 1
consider : 2
delink : 1
bean : 5
group : 16
obtain : 6
ceuta : 1
island : 1
resist : 6
dampen : 2
particular : 1
tonen : 1
chaco : 3
done : 5
water : 6
formal : 3
twice : 1
eridania : 1
friendli : 2
higashi : 2
soar : 1
histori : 1
exchang : 18
ferruzzi : 7
request : 22
tent : 1
glickman : 10
adequ : 3
procedur : 2
mike : 1
incom : 6
part : 22
novemb : 6
unexpect : 1
percent : 1
point : 17
coars : 8
sunshin : 1
tend : 1
east : 2
uphold : 3
multilater : 2
relief : 1
pari : 26
compens : 4
ltd : 1
park : 1
zimbabw : 7
facil : 4
process : 9
attribut : 1
feedgrain : 15
clear : 4
reliev : 1
meal : 9
third : 13
dramat : 2
build : 2
mean : 10
neither : 2
earn : 2
meat : 2
germin : 1
cooper : 1
further : 2
account : 6
lui : 3
gluten : 4
dec : 1
japanes : 13
addit : 23
beef : 3
parliament : 1
paralys : 2
bind : 1
trip : 1
trim : 2
darwin : 1
mcneil : 1
record : 38
killen : 1
crisi : 1
partli : 2
beet : 3
chicago : 33
you : 3
subsidiari : 3
soft : 13
jump : 2
perceiv : 1
pass : 6
past : 7
burnham : 2
impact : 13
mild : 1
milk : 1
bill : 20
percentag : 3
especi : 2
court : 9
yugoslavia : 2
cours : 3
buyer : 12
mill : 6
senior : 5
enthusiasm : 1
carefulli : 1
asssess : 1
dealt : 1
juli : 18
paso : 1
mildew : 1
preserv : 1
organ : 1
hog : 1
troubl : 2
unwilling : 1
soil : 4
corpor : 5
hot : 1
pursu : 1
interior : 9
minu : 3
how : 2
releas : 14
spark : 3
peter : 1
term : 14
fluctuat : 3
mind : 2
okla : 1
ruvuma : 1
ming : 1
staff : 2
alejandro : 1
right : 5
march : 171
amsol : 1
blast : 1
minn : 3
reuter : 31
countervail : 5
yuan : 1
influenti : 1
june : 20
beghin : 7
stage : 2
meet : 10
answer : 1
resend : 3
archer : 2
maximum : 13
thursdai : 5
inch : 1
transvaal : 2
under : 11
paul : 1
quarter : 6
london : 1
reserv : 21
moscow : 17
gustafson : 3
dim : 1
down : 3
hold : 7
convinc : 3
later : 9
elabor : 1
nazionali : 1
prior : 5
rubber : 2
livestock : 5
bracket : 2
legal : 4
forgotten : 1
tribun : 5
talk : 21
signal : 1
richard : 9
ralph : 2
accompani : 1
subproduct : 2
centigrad : 1
prematur : 1
louisiana : 8
hrw : 3
brown : 3
take : 22
retroact : 2
month : 42
commonli : 2
final : 15
chinkuli : 2
injur : 8
octob : 12
perhap : 4
some : 7
loan : 25
virtual : 1
rather : 8
entr : 4
henderson : 2
back : 8
amstutz : 14
divis : 3
edibl : 2
compani : 10
bach : 1
heavier : 2
santa : 13
belg : 2
pound : 8
load : 12
tank : 1
divid : 1
primarili : 5
asid : 4
coincid : 1
sold : 15
coupl : 2
manufactur : 1
relax : 1
custom : 4
monitor : 1
und : 14
dlr : 126
unc : 13
advers : 3
impend : 2
michael : 1
condit : 12
although : 6
interpret : 1
relat : 4
grant : 13
strictli : 1
toledo : 6
explain : 2
colza : 2
spokeswoman : 1
discount : 3
ignor : 1
necess : 1
zhang : 1
hope : 6
elsewher : 2
attempt : 3
artifici : 1
soon : 8
america : 2
influenc : 3
gramm : 2
bounti : 1
supplier : 5
action : 9
lock : 1
rapidli : 1
fear : 4
shultz : 5
creat : 6
lisbon : 5
incent : 4
belt : 9
made : 26
stall : 1
protest : 1
texa : 8
manag : 4
triangl : 1
bell : 1
millng : 1
hong : 1
purchas : 46
restitut : 1
field : 13
singl : 1
stalei : 2
notifi : 1
skew : 2
upset : 1
don : 10
rotterdam : 2
britain : 4
enrol : 33
natur : 1
phenomenon : 1
deriv : 1
summer : 8
eight : 12
machineri : 1
robert : 4
file : 5
mai : 90
known : 4
austin : 1
member : 7
commiss : 33
wouldn : 1
stand : 5
surround : 1
mar : 7
heavi : 19
variou : 4
independ : 1
within : 6
could : 49
forward : 5
urg : 11
reschedul : 1
cattl : 1
rental : 6
prospect : 11
probabl : 17
relev : 1
return : 4
cheaper : 2
feet : 1
mail : 1
subject : 4
edward : 2
feel : 2
main : 13
british : 1
convent : 1
find : 7
adher : 1
host : 1
commun : 19
dri : 1
grain : 218
credit : 11
regardless : 1
upward : 2
ideal : 1
sorg : 1
monopoli : 5
zorinski : 1
difficult : 1
dry : 18
vallei : 1
nippon : 2
fill : 1
heart : 2
lawmak : 2
guarante : 14
feed : 29
clayton : 3
servic : 7
kleckner : 1
hertz : 2
task : 1
specialist : 5
true : 1
nonetheless : 1
aynalem : 1
present : 2
bumper : 3
nakamura : 2
remodel : 1
best : 1
legitim : 1
certainli : 1
transform : 1
execut : 3
hous : 15
competitor : 1
bale : 8
repeat : 2
leadership : 1
paradox : 1
barlei : 41
make : 34
fulfil : 3
met : 2
capit : 7
loiu : 1
heard : 1
spokesman : 14
stern : 1
competit : 28
sindt : 6
compound : 6
brly : 1
due : 23
maiz : 152
domest : 17
underlin : 1
disagre : 1
inform : 1
depend : 8
sown : 10
commit : 17
about : 1
mge : 5
danger : 2
curb : 2
prudenti : 1
cover : 18
rudman : 2
firm : 4
reflect : 6
bank : 6
stick : 2
maclain : 1
immedi : 5
setback : 1
transship : 1
august : 8
madigan : 1
congression : 9
balt : 1
frozen : 1
benefit : 8
ministri : 7
flood : 10
malt : 1
undertaken : 1
miller : 1
highest : 4
boost : 5
except : 1
predomin : 1
grower : 44
rudi : 1
qualiti : 1
shower : 1
acquir : 2
katharina : 1
fact : 3
debat : 2
monthli : 3
mid : 9
unjustifi : 3
global : 2
acquisit : 3
long : 16
announc : 19
soyb : 1
fell : 14
cedar : 1
soya : 1
upheld : 2
saturdai : 1
counselor : 5
unless : 1
excess : 6
industri : 21
free : 21
relationship : 1
mix : 1
honour : 1
though : 5
polit : 3
dimish : 1
appeal : 2
commerc : 1
appear : 9
face : 6
abandon : 1
fish : 4
reliabl : 1
progress : 4
oper : 17
mani : 13
open : 14
bulletin : 1
tripl : 1
ratio : 6
stai : 1
linse : 1
seller : 1
agent : 1
fletcher : 1
captur : 1
invest : 8
rapid : 1
seven : 19
project : 7
decoupl : 10
sunflowerse : 5
sever : 18
retaliatori : 2
jean : 1
california : 1
barg : 14
tobacco : 3
taxpay : 1
five : 23
evalu : 1
crusher : 1
flaxse : 1
endors : 1
gasolin : 1
look : 9
mln : 405
repres : 13
idl : 9
raton : 1
comod : 1
netherland : 6
korea : 9
lubbock : 1
concentr : 2
inspect : 12
campaign : 4
caucasu : 1
investig : 1
alloc : 2
allow : 13
arriv : 3
cornfeedm : 1
seattl : 2
commerci : 5
rule : 28
proper : 2
condemn : 1
everi : 3
bitter : 1
organis : 1
peopl : 5
auction : 4
summari : 3
outsid : 2
admit : 1
interest : 10
appli : 11
gulf : 53
certainti : 1
provisiion : 1
commod : 36
presid : 10
middl : 2
healthi : 1
sunoil : 1
again : 2
jike : 1
isao : 1
canari : 1
imprt : 1
marc : 1
milton : 1
step : 6
comment : 10
rouen : 6
basi : 12
excit : 1
excis : 1
insul : 1
mark : 4
base : 24
indiana : 6
ireland : 3
registr : 5
septemb : 28
minist : 8
olein : 1
trend : 3
gruppo : 2
prefix : 2
kaunda : 1
biffex : 1
whole : 5
senat : 21
fair : 2
preliminari : 6
venezuela : 3
consist : 1
agricultur : 128
loss : 5
quantiti : 7
critic : 3
cigra : 2
price : 151
lost : 2
still : 21
work : 11
lose : 3
mpl : 1
hesit : 1
declin : 16
necessit : 1
suitabl : 1
fail : 5
toward : 4
among : 6
prolong : 1
discourag : 2
coverag : 2
spain : 17
algeria : 6
republican : 7
pascal : 1
iii : 2
verifi : 1
alexandria : 1
impos : 7
requir : 13
foreign : 7
across : 3
fall : 22
decreas : 8
scatter : 1
eat : 1
reced : 1
lubbck : 1
minneapoli : 6
graze : 2
sudan : 1
loui : 6
bullish : 1
harargh : 1
appropri : 5
skeptic : 1
opinion : 1
excel : 2
agenc : 12
liquid : 2
pacif : 5
cannot : 2
averag : 34
stir : 1
alvaro : 1
first : 28
mainli : 1
midmississippi : 2
prefer : 1
lambert : 1
tight : 2
space : 1
monetari : 1
ecu : 23
permament : 1
appar : 3
from : 8
clearli : 1
depart : 99
stagnat : 1
portugues : 4
mccune : 2
spell : 3
offset : 6
bottom : 1
seneca : 1
ill : 5
anticip : 8
poitou : 1
mud : 1
inelig : 1
imf : 6
death : 1
manuel : 5
winter : 20
membership : 1
elder : 1
network : 1
eep : 19
liber : 1
public : 9
paper : 2
zimmer : 2
spend : 4
steam : 1
track : 2
inc : 10
windi : 1
martyr : 1
valencia : 2
grave : 2
overal : 8
fertilis : 1
trader : 33
heaviest : 3
humid : 2
improv : 9
instead : 4
yugoslav : 8
unlik : 7
trade : 98
repai : 1
round : 3
growth : 9
inteview : 1
slash : 3
uproot : 1
retir : 1
controversi : 3
perman : 4
properli : 1
egg : 1
refus : 2
year : 215
absenc : 1
defici : 23
via : 4
dutch : 3
markedli : 2
substanti : 5
poor : 7
quota : 9
farm : 64
volum : 17
accuraci : 1
near : 7
approxim : 3
tennesse : 1
newslett : 3
agreement : 40
rat : 1
instruct : 1
anhui : 1
raw : 2
merchant : 1
sunflow : 16
redempt : 5
conserv : 38
furthermor : 2
stop : 5
minnesota : 4
guess : 10
rbd : 2
handl : 2
detail : 15
economi : 1
panhandl : 1
stow : 2
southern : 9
least : 14
pork : 1
milan : 1
dollar : 5
unpublish : 2
measur : 9
close : 12
iri : 2
meyer : 3
abl : 3
materi : 1
merchandis : 1
cordoba : 13
exce : 3
uncertainti : 4
issuanc : 1
slap : 1
nine : 10
eager : 1
pryor : 3
duluth : 2
rural : 1
contribut : 1
ohio : 1
agpm : 4
farmland : 6
nino : 9
specif : 1
spring : 7
red : 2
acr : 111
act : 6
post : 10
rel : 2
insecticid : 1
finish : 2
rep : 9
georg : 1
add : 2
doesn : 1
chines : 5
initi : 7
need : 21
pose : 1
amend : 14
steadili : 3
equival : 6
often : 1
adm : 2
liberalis : 4
zambia : 9
respect : 5
subotica : 1
transact : 3
risen : 3
mutual : 1
canada : 35
port : 9
inroad : 1
isol : 2
ascensao : 2
altern : 1
boren : 1
washington : 75
breakdown : 7
belgrad : 3
consequ : 2
ridg : 1
overnight : 5
prevent : 3
von : 3
retend : 3
pasta : 3
end : 29
benefici : 1
capitalist : 1
acit : 1
modifi : 1
dakota : 1
otherwis : 3
zuccherifici : 1
particip : 12
contin : 1
veget : 4
rich : 1
northeast : 3
rice : 23
howev : 27
fledg : 1
estim : 89
special : 12
agre : 8
numer : 1
exempt : 6
slid : 1
smaller : 2
told : 27
challeng : 2
specul : 4
charter : 1
ago : 41
properti : 1
jerri : 1
toll : 2
retali : 4
slightli : 9
number : 21
meteorologist : 1
identifi : 3
rounnd : 1
specifi : 1
outbreak : 2
rio : 4
narrow : 1
ababa : 1
similar : 5
trifl : 1
ceil : 1
rubibira : 2
system : 12
agribusi : 1
likelihood : 1
spot : 3
driven : 2
aid : 13
issu : 25
partial : 3
anyon : 1
other : 5
tone : 1
aim : 6
boca : 1
dismantl : 2
drastic : 5
air : 27
tonn : 489
local : 2
resum : 1
pyrene : 1
crude : 2
jurisdict : 1
assur : 1
assum : 1
locat : 1
yield : 29
optimist : 2
share : 11
speak : 1
deficit : 2
tender : 46
milwauke : 1
corrient : 3
fisheri : 1
chairman : 5
uruguai : 3
harar : 2
abastecimento : 2
bushel : 81
boat : 2
sharp : 9
surpris : 1
standstil : 1
citi : 11
slip : 1
cite : 5
exampl : 4
mississippi : 3
movement : 6
pertain : 1
cent : 17
honor : 2
est : 1
neb : 1
missouri : 2
correspond : 2
neg : 5
bomani : 1
byproduct : 1
insect : 2
bureau : 4
net : 1
oblig : 1
belgium : 5
all : 7
marcel : 1
border : 1
new : 42
took : 8
evansvil : 1
rapese : 6
escal : 1
below : 1
todai : 26
choos : 1
real : 1
tool : 1
unit : 39
alreadi : 11
unip : 1
therefor : 1
shame : 1
around : 26
villanueva : 5
favour : 2
snowi : 1
shortli : 1
ron : 1
disappoint : 5
poultri : 3
resolv : 1
calcul : 10
and : 12
rot : 3
predict : 4
ani : 2
haven : 2
financ : 9
egypt : 4
oilse : 11
transport : 5
robbin : 1
committe : 29
previou : 29
earmark : 2
estat : 1
unfavor : 1
storag : 11
reason : 8
pasturag : 1
thought : 6
maintain : 5
turkei : 4
shift : 4
ship : 22
cert : 16
simultan : 1
johnson : 3
nil : 14
tapioca : 1
cake : 2
fragil : 1
protein : 2
annual : 17
english : 1
cropland : 3
zealand : 2
resort : 1
apr : 8
margin : 6
epac : 19
broke : 1
circumst : 1
remain : 11
countercycl : 1
welfar : 1
demand : 12
testifi : 3
slow : 10
grade : 1
letter : 3
unsurpass : 1
continent : 3
iowa : 7
bearish : 3
northwest : 4
miguel : 2
cereai : 2
recommend : 4
experienc : 1
worth : 14
taken : 7
came : 1
where : 1
ark : 1
broader : 1
arm : 1
broaden : 1
broken : 1
vice : 5
riot : 1
broker : 1
balanc : 3
asa : 2
tour : 1
fulli : 1
call : 16
asc : 14
martel : 5
remaind : 1
essenti : 1
ask : 20
principl : 1
through : 2
oppos : 8
florida : 1
nmc : 2
run : 7
larri : 1
enact : 1
refin : 7
research : 2
reorgan : 1
worri : 2
view : 6
either : 4
white : 4
amarillo : 1
shortag : 2
acknowledg : 1
quesstim : 1
thailand : 3
portland : 1
huge : 1
housew : 2
discov : 1
those : 1
difficulti : 2
alik : 1
imposs : 1
barreto : 5
examin : 2
might : 15
dure : 3
contamin : 1
lanka : 3
aug : 1
longer : 1
introduc : 8
privat : 26
grasslei : 2
acico : 3
reopen : 3
consum : 3
name : 1
irrig : 3
cane : 3
physic : 1
crop : 110
notabl : 1
next : 20
bernard : 1
import : 125
submit : 7
reli : 3
abolish : 3
truck : 1
attract : 2
book : 2
show : 26
unspecifi : 1
disappear : 3
non : 17
nor : 1
comput : 1
not : 3
avg : 4
central : 4
midland : 2
capac : 2
nov : 1
defend : 2
nearli : 7
now : 8
statement : 8
factor : 5
boot : 1
wai : 11
negoti : 6
publica : 2
lehman : 1
melnikov : 6
associ : 27
europ : 2
duti : 17
bond : 1
grew : 1
target : 19
momentum : 1
tokyo : 2
deliveri : 47
knowledg : 3
what : 1
refer : 2
african : 5
israel : 5
yang : 2
bonu : 15
risk : 2
rise : 16
underpin : 2
greg : 2
incomprehens : 1
rye : 1
leader : 7
kika : 1
displac : 2
rent : 2
when : 2
significantli : 3
modest : 3
plai : 1
cast : 1
crush : 1
copra : 1
frost : 2
far : 9
unfairli : 1
broad : 1
greec : 9
catch : 1
cash : 35
plan : 33
greater : 7
nearbi : 2
case : 9
give : 5
boschwitz : 4
leahi : 1
lowest : 5
signup : 21
destin : 19
studi : 17
consid : 22
subsidi : 49
futur : 28
slide : 2
prevail : 2
droit : 1
explor : 1
southeastern : 1
orang : 3
portion : 2
direct : 6
heighten : 1
bottler : 1
nonrecours : 1
surplu : 8
klopfenstein : 2
gail : 1
gain : 6
arabia : 4
caus : 23
stangeland : 1
kilo : 2
violat : 3
natl : 2
protect : 1
lobbyist : 1
indonesian : 1
stress : 3
disput : 3
recaptur : 1
rescu : 1
consumpt : 6
more : 4
wet : 5
great : 5
morn : 4
dairi : 4
usag : 15
mexico : 3
onward : 2
rebat : 23
citruspulp : 2
advanc : 11
certain : 3
spurn : 1
board : 18
feb : 14
fed : 1
section : 1
simpli : 1
rumor : 10
threaten : 1
strain : 1
rain : 48
cave : 1
sweeten : 16
profil : 1
kind : 6
daili : 11
rais : 7
usda : 157
both : 2
market : 103
keen : 1
intensifi : 2
transfer : 1
cereal : 20
overhaul : 1
effect : 9
keep : 5
elev : 3
cumul : 1
eaten : 1
sugar : 51
embarrass : 1
option : 11
weigh : 1
sponsor : 1
largest : 3
bordeaux : 1
reagan : 12
addi : 1
armendariz : 1
crucial : 2
continu : 27
remark : 1
arusha : 1
highlight : 1
along : 4
billion : 46
reject : 7
arrang : 2
sai : 36
peanut : 2
david : 3
messag : 2
profit : 1
sao : 2
didn : 2
san : 3
rest : 2
butter : 1
move : 12
amount : 22
reexport : 1
linoil : 1
inadequ : 2
saw : 1
also : 61
enough : 8
differ : 17
spread : 2
surpass : 1
histor : 2
nawg : 3
situat : 9
illeg : 1
favor : 6
abidjan : 1
fertil : 1
visit : 3
front : 1
hopper : 1
approv : 22
user : 5
confus : 2
extent : 1
confid : 1
extens : 4
bad : 2
unwil : 1
potenti : 4
bring : 5
spokesperson : 1
bag : 1
complet : 6
ban : 3
squeez : 1
offer : 57
denver : 2
suffer : 4
bar : 2
amarlo : 1
claus : 4
fix : 4
conciliatori : 1
complex : 2
rank : 1
outlet : 1
rang : 24
despit : 6
posit : 3
surg : 1
grow : 10
ad : 26
sure : 2
formosa : 3
elig : 10
an : 5
secur : 1
greatli : 1
saudi : 4
ostens : 3
extend : 8
ar : 2
as : 7
at : 5
lyng : 19
plant : 88
drive : 2
brother : 1
hurt : 5
dean : 1
strong : 7
deal : 9
be : 6
prove : 2
affect : 18
insignific : 1
underwai : 2
ministeri : 1
sixti : 1
subsid : 10
see : 12
domin : 3
bu : 3
by : 27
civil : 2
franc : 16
montana : 1
wheat : 183
fla : 1
insuffici : 1
panel : 7
sen : 8
deleg : 1
apirl : 1
plummet : 1
set : 25
contain : 7
familiar : 1
co : 6
unseason : 1
food : 10
figur : 40
ct : 16
fly : 1
somewhat : 1
river : 6
interview : 3
jul : 1
de : 7
jun : 2
oecd : 16
featur : 1
offic : 12
vieux : 3
forc : 4
dn : 11
dp : 3
parti : 1
justic : 1
outlin : 1
guidanc : 1
chernobyl : 1
won : 6
contact : 1
ec : 76
which : 2
ef : 1
signific : 6
ei : 1
el : 9
matin : 1
carri : 3
complain : 2
cleari : 1
crystallin : 1
er : 1
es : 2
abund : 2
never : 1
she : 4
aggress : 1
danforth : 1
susan : 2
adjust : 14
fob : 21
activ : 16
western : 6
compar : 27
fe : 13
compet : 2
indic : 14
delai : 5
jersei : 1
origin : 7
huckabi : 18
for : 35
exclud : 5
depress : 3
iringa : 2
india : 1
content : 1
plow : 1
rate : 39
abastecimiento : 1
regulatori : 1
await : 1
unfair : 4
accid : 1
cosponsor : 1
ildl : 1
gaug : 1
promot : 1
contend : 1
settl : 1
over : 11
spanish : 18
oat : 12
six : 9
bound : 1
go : 12
cicumst : 1
syrup : 9
gatt : 4
kept : 2
kahn : 4
breed : 1
lucki : 1
rash : 1
evnsvll : 1
publish : 1
farmer : 84
ha : 7
rainfal : 13
starch : 5
restor : 1
renew : 1
bia : 1
avoid : 1
fresh : 2
bid : 20
he : 27
prompt : 3
burgess : 4
hf : 1
peasant : 2
big : 4
hi : 1
select : 1
congress : 15
geneva : 1
poland : 2
canadian : 40
easili : 1
degre : 2
hr : 2
output : 19
ski : 1
veri : 2
promis : 4
four : 35
context : 4
decemb : 16
midwest : 10
drag : 1
join : 1
decis : 28
moder : 2
vern : 4
promin : 1
if : 14
french : 54
ii : 2
oct : 4
in : 64
inquiri : 1
director : 6
termin : 4
lower : 40
tomorrow : 5
index : 1
worldwid : 1
is : 2
it : 38
moistur : 11
iv : 6
decid : 16
drink : 2
odd : 1
phil : 2
reduct : 12
jiyun : 1
supplement : 1
contrast : 2
gave : 5
john : 4
begin : 13
wider : 1
valu : 17
brought : 4
widen : 3
optim : 2
weekend : 3
carryov : 1
customari : 1
ussr : 48
believ : 11
ethanol : 5
settlement : 1
peoria : 2
soymeal : 5
world : 29
kwacha : 2
kc : 1
slump : 1
sunmeal : 2
tradition : 1
penal : 1
belief : 1
groundnutse : 1
ottawa : 3
soybean : 106
frenet : 1
bread : 7
side : 1
break : 2
frazier : 6
readmit : 1
itali : 13
off : 1
la : 10
lb : 7
tunisia : 2
report : 122
tendenc : 1
ll : 3
expans : 6
lo : 2
receiv : 25
sign : 16
cotton : 17
northern : 13
while : 4
soi : 1
directli : 1
ly : 1
rupiah : 1
second : 4
that : 8
high : 33
faster : 1
noaa : 1
split : 3
conclud : 2
certifi : 2
limit : 11
claim : 2
widespread : 2
pessimist : 1
sow : 2
denomin : 1
brian : 3
mi : 1
porter : 1
administr : 35
mm : 30
tanzania : 5
mo : 1
level : 39
spa : 1
alabama : 1
author : 34
survei : 3
modif : 1
my : 1
establish : 2
daniel : 4
fritz : 2
expand : 8
bob : 3
dream : 1
fiscal : 8
precipit : 1
nc : 1
ne : 1
updat : 4
morocco : 4
oregon : 2
produc : 78
legisl : 10
heat : 2
no : 8
behind : 1
dormanc : 1
code : 1
ns : 2
schedul : 5
switch : 12
tumbl : 1
matur : 2
head : 4
total : 113
deni : 4
oil : 21
deng : 5
recipi : 1
compania : 1
of : 16
kan : 5
possibl : 14
involv : 3
hear : 4
erodobl : 1
on : 59
blah : 63
durum : 3
purpos : 1
or : 4
recover : 2
conclus : 1
complianc : 1
control : 12
sri : 3
frist : 1
confer : 1
highli : 3
comprehens : 1
pretti : 1
therbi : 1
extrem : 1
dormant : 1
offici : 86
earth : 1
srw : 6
voluntarili : 1
pl : 6
whichev : 1
dominican : 1
nation : 28
upper : 1
delta : 1
figuera : 1
stood : 3
injuri : 6
factori : 1
exert : 1
necessari : 2
vari : 1
damag : 20
strengthen : 1
nonbind : 1
recent : 26
pinpoint : 1
karn : 1
varieti : 1
old : 1
australia : 3
them : 4
then : 1
thei : 20
accept : 18
collin : 5
cattlemen : 2
jopl : 1
re : 14
includ : 22
northwestern : 1
adopt : 1
destruct : 2
brasilia : 1
austria : 2
madrid : 2
autumn : 1
cftc : 6
minut : 1
sub : 1
secretari : 15
currenc : 7
access : 5
seed : 7
arlan : 1
omb : 1
davenport : 2
overproduct : 1
seek : 8
seen : 17
kei : 3
seem : 2
current : 53
mbeya : 1
resumpt : 1
disturb : 1
persist : 1
so : 4
fructos : 8
caution : 1
apart : 1
calendar : 7
st : 2
intern : 7
centr : 2
lighter : 1
salaam : 2
maker : 2
launch : 3
amid : 1
store : 4
silo : 2
intervent : 7
quell : 1
stori : 2
confirm : 7
emerg : 5
pledg : 1
bud : 1
pull : 1
stormi : 1
ti : 1
gallon : 1
bui : 47
remov : 2
garnac : 1
counti : 13
dealer : 15
assist : 3
to : 55
fourth : 8
famin : 1
typic : 1
but : 22
shortfal : 1
symbol : 1
sorghum : 55
joint : 6
agreeement : 1
expens : 1
willing : 2
cinci : 1
nebraska : 1
express : 2
ua : 2
zero : 6
piura : 1
countri : 50
sww : 2
jamaica : 2
unoffici : 1
dale : 2
assumpt : 1
up : 22
sector : 5
us : 35
usual : 3
nelson : 2
ve : 4
thin : 1
substitut : 1
taiwan : 30
vi : 3
recess : 1
brazilian : 1
ocean : 1
bolster : 1
know : 5
stolt : 1
region : 4
support : 19
vs : 4
sinc : 30
vt : 1
higher : 23
libr : 1
drop : 19
brazil : 12
inadvertantli : 1
unaffect : 1
breakthrough : 1
idea : 5
cold : 8
unchang : 9
we : 35
life : 3
damp : 1
forestal : 1
wi : 1
gao : 9
licenc : 16
gap : 1
throughout : 6
inventori : 1
lieu : 1
choic : 1
normal : 13
gradual : 3
slight : 3
previous : 5
stonn : 1
wide : 2
kaysersberg : 2
newspap : 4
licens : 2
accumul : 1
transmit : 1
distribut : 2
drought : 6
forego : 2
bangladesh : 1
cornglutenfe : 1
accru : 1
sourc : 72
held : 4
ampl : 2
reach : 24
type : 3
onic : 5
april : 63
ernesto : 1
problem : 10
ontario : 3
review : 2
tighter : 1
weather : 30
between : 3
goal : 2
contract : 32
voluntari : 1
sluggish : 1
come : 6
sugarbeet : 1
push : 4
exist : 6
panelist : 1
drexel : 2
ongo : 1
johannesburg : 1
stockpil : 1
seventeen : 1
opportun : 2
exact : 1
undersecretari : 2
lift : 1
lightli : 1
regist : 2
feder : 5
south : 31
testimoni : 1
north : 5
freight : 15
our : 1
out : 4
weak : 2
flax : 1
climat : 1
timechart : 1
flat : 1
induc : 1
get : 11
peseta : 2
maggi : 1
dark : 1
accus : 1
statist : 2
place : 4
packag : 1
accur : 1
semi : 1
leav : 2
alwai : 2
chortl : 1
regular : 1
someon : 1
firmer : 1
haubourdin : 2
restart : 1
bigger : 1
sell : 12
cool : 1
myer : 4
ovr : 7
suggest : 4
thou : 5
leaf : 1
observ : 2
lead : 6
fraction : 2
expect : 65
help : 11
sunlight : 1
associaiton : 1
assess : 4
self : 5
revis : 7
minimum : 4
chemic : 2
date : 11
dress : 1
argument : 1
unequivoc : 1
tuesdai : 3
corp : 6
data : 1
corn : 437
norf : 1
own : 9
begun : 1
separ : 1
beverag : 4
lightest : 1
bours : 2
bracera : 2
barrier : 2
argentina : 22
acreag : 52
plain : 3
divers : 3
should : 2
econom : 8
tag : 1
replac : 1
sens : 2
upcom : 2
portug : 9
like : 27
onli : 3
snowstorm : 1
embassi : 3
tax : 15
sent : 3
loewi : 2
wehat : 1
council : 8
ground : 1
empresa : 2
xiaop : 1
temperatur : 8
euqival : 1
here : 3
note : 14
week : 112
deplet : 1
line : 7
noth : 2
deliv : 4
scale : 5
distinct : 1
becom : 2
provis : 5
fraternit : 1
award : 7
peavei : 1
satisfi : 1
albert : 2
cypru : 2
februari : 21
cincinnati : 3
recoveri : 2
said : 572
lusaka : 2
provid : 16
wello : 1
realli : 2
greatest : 2
sept : 5
cost : 32
lima : 1
will : 5
readi : 4
agrument : 1
treati : 2
match : 1
fault : 1
intens : 7
versu : 9
follow : 24
intent : 8
cbo : 2
stockton : 2
cbt : 6
kingslei : 1
york : 2
brussel : 6
intend : 4
