0.002628581442215018
german : 9
farrmer : 1
ccc : 9
ultim : 1
half : 4
year : 34
govern : 4
hall : 6
dutch : 8
temporari : 1
would : 5
substanti : 1
pick : 2
poor : 1
quota : 5
volum : 2
farm : 9
newslett : 2
agreement : 3
instruct : 1
stabil : 1
tallow : 2
stop : 1
illinoi : 1
handl : 1
detail : 3
much : 2
object : 1
southern : 1
ahead : 1
least : 1
turn : 1
suffici : 1
polici : 3
dollar : 2
result : 4
lightn : 3
close : 1
a : 3
c : 2
costum : 1
f : 2
norwai : 2
h : 1
union : 6
k : 8
l : 1
soviet : 7
the : 41
halt : 1
sale : 37
s : 53
thi : 4
u : 41
exce : 1
discuss : 2
thu : 1
nine : 2
good : 3
tdri : 2
act : 2
post : 1
sharpli : 2
pai : 1
implement : 1
advis : 1
export : 25
jakarta : 2
area : 3
chines : 1
pat : 1
shipment : 8
steadili : 3
european : 11
reduc : 4
diseas : 1
liberalis : 2
canada : 6
port : 5
washington : 9
weekli : 4
chile : 6
cif : 3
agro : 1
denmark : 2
germani : 3
combin : 4
end : 10
pct : 48
particip : 1
veget : 6
howev : 4
estim : 3
with : 1
philippin : 3
china : 3
complaint : 1
analyst : 1
outlook : 1
gsm : 1
smaller : 1
specul : 1
told : 4
ago : 5
american : 7
hamper : 1
lpfa : 1
rie : 3
number : 1
slightli : 2
stevedor : 1
soyproduct : 2
slack : 1
per : 10
devalu : 1
shorter : 1
period : 6
went : 1
invit : 1
indonesia : 6
system : 2
million : 1
spot : 1
driven : 1
partial : 1
issu : 1
jame : 1
larger : 1
wait : 1
other : 2
pellet : 11
aim : 1
increas : 16
institut : 1
air : 1
tonn : 117
crude : 2
ton : 1
potato : 5
locat : 1
yield : 2
share : 2
duim : 1
morrison : 1
avail : 1
product : 22
bought : 2
chairman : 1
littl : 3
bushel : 10
sharp : 1
notic : 1
meanwhil : 1
rose : 12
movement : 2
thousand : 1
cent : 4
correspond : 1
republ : 1
pig : 3
quietli : 2
earlier : 9
whether : 1
west : 11
bureau : 1
stock : 5
net : 2
belgium : 2
all : 1
new : 11
guilder : 3
rapese : 3
baltic : 3
todai : 6
less : 2
oilmeal : 2
around : 3
disappoint : 1
poultri : 4
timet : 1
and : 2
ani : 1
egypt : 1
oilse : 6
transport : 2
committe : 1
previou : 12
earmark : 1
plu : 1
carcas : 1
cebeco : 1
storag : 1
reason : 1
japan : 7
turkei : 3
ship : 2
absorb : 1
enhanc : 1
nil : 1
compon : 2
tapioca : 11
cake : 9
jan : 1
protein : 8
annual : 2
state : 1
cargo : 1
pillsburi : 1
yesterdai : 6
margin : 5
began : 1
remain : 4
gener : 2
want : 2
bueno : 1
forecast : 6
handelsraad : 1
processor : 8
demand : 7
slow : 1
grade : 1
must : 4
anim : 2
suppli : 7
cut : 5
two : 12
attack : 1
larg : 4
tariff : 2
acceler : 1
latest : 2
graan : 1
balanc : 1
call : 1
chilean : 1
charg : 2
calf : 1
ask : 1
polish : 1
dilemma : 1
hungari : 2
definit : 1
vorm : 2
run : 2
research : 2
view : 1
structur : 1
thailand : 12
increa : 1
doubl : 1
given : 2
eastern : 2
last : 11
might : 1
hopefulli : 1
dure : 2
develop : 2
nomin : 1
scandinavian : 1
crop : 4
next : 2
import : 27
attract : 1
truck : 1
show : 11
disappear : 1
peru : 6
central : 2
capac : 1
stronger : 2
nearli : 2
statement : 3
enabl : 2
associ : 10
argentin : 4
europ : 2
start : 2
duti : 4
yet : 1
earli : 2
target : 1
equal : 2
tokyo : 1
deliveri : 5
chang : 2
israel : 1
paid : 1
financi : 1
bonu : 3
time : 6
rise : 5
europoort : 1
displac : 1
program : 8
significantli : 1
three : 5
put : 1
crush : 15
copra : 5
far : 4
frost : 1
unfairli : 1
season : 21
payment : 1
catch : 5
nearbi : 1
cash : 4
plan : 2
greater : 1
give : 2
pest : 1
iraq : 1
preced : 3
destin : 7
consid : 1
light : 1
subsidi : 2
futur : 24
quot : 3
januari : 26
pattern : 1
fci : 2
gain : 2
unknown : 5
labour : 2
lot : 1
arabia : 1
panama : 1
caus : 3
premium : 3
kilo : 1
low : 5
consult : 3
protect : 1
lobbyist : 1
indonesian : 2
hamburg : 6
consumpt : 5
more : 1
morn : 1
usag : 12
mexico : 2
onward : 4
citruspulp : 3
board : 3
feb : 3
dai : 3
peruvian : 1
hit : 1
major : 8
pigmeat : 2
bean : 2
group : 1
obtain : 1
rain : 2
gross : 1
daili : 2
format : 1
rais : 1
usda : 5
most : 1
market : 25
keen : 1
cereal : 1
effect : 1
elev : 1
cumul : 2
exchang : 12
achiev : 2
largest : 5
mike : 1
continu : 4
unexpect : 1
novemb : 1
point : 1
east : 1
along : 1
billion : 4
sai : 1
oilcak : 2
rest : 1
facil : 1
process : 2
butter : 1
amount : 2
move : 1
saw : 2
iceland : 2
also : 7
differ : 1
meal : 37
afternoon : 1
situat : 2
third : 9
favor : 1
build : 1
meat : 2
user : 1
approv : 1
gluten : 3
extens : 1
dec : 3
japanes : 2
addit : 8
complet : 3
parliament : 1
ban : 1
offer : 7
der : 2
suffer : 1
record : 2
chicago : 1
despit : 1
surg : 3
posit : 1
ad : 8
pass : 1
past : 2
milk : 1
bill : 1
elig : 2
percentag : 1
secur : 1
an : 1
saudi : 1
buyer : 8
as : 2
at : 3
plant : 5
ammar : 3
juli : 5
milder : 1
hurt : 2
insignific : 1
equador : 1
englebright : 1
corpor : 5
rape : 1
domin : 2
releas : 1
civil : 1
wheat : 5
insuffici : 1
slighlti : 1
set : 2
co : 1
unprofit : 2
march : 31
food : 3
figur : 13
blast : 1
reuter : 3
countervail : 1
ct : 1
june : 5
meet : 3
stage : 1
maximum : 1
quarter : 5
london : 9
somfa : 1
realloc : 1
down : 4
later : 3
prior : 4
livestock : 1
legal : 1
bracket : 1
talk : 2
diversifi : 1
ec : 9
which : 1
static : 1
cleari : 1
fnv : 1
take : 3
month : 13
adjust : 2
fob : 1
octob : 2
activ : 4
compar : 11
macki : 1
indic : 5
delai : 3
origin : 1
for : 4
back : 1
compani : 2
india : 3
heerlen : 1
energet : 1
warehous : 2
load : 1
soyfood : 1
rate : 2
regulatori : 1
unfair : 1
exclus : 1
amalgam : 2
promot : 1
human : 1
sold : 1
six : 3
manufactur : 1
dlr : 24
advers : 1
condit : 1
form : 2
farmer : 2
avoid : 1
bid : 2
fresh : 1
prompt : 2
he : 4
merger : 2
canadian : 3
attempt : 1
soon : 1
america : 2
output : 8
four : 7
supplier : 2
lock : 1
action : 1
decemb : 15
join : 2
decis : 3
if : 1
french : 3
crown : 1
creat : 2
oct : 2
in : 9
inquiri : 1
made : 3
director : 2
lower : 6
tomorrow : 2
it : 8
decid : 1
manag : 1
purchas : 8
reduct : 2
singl : 2
john : 1
begin : 3
bhagat : 2
valu : 7
rotterdam : 8
britain : 2
weekend : 1
skim : 1
ussr : 4
deriv : 1
settlement : 2
eight : 1
soymeal : 18
world : 4
mai : 8
stream : 1
member : 6
sunmeal : 3
soybean : 33
could : 4
strike : 3
itali : 2
cattl : 2
report : 17
probabl : 2
subject : 1
cotton : 2
main : 6
british : 1
bail : 1
northern : 1
soi : 2
rupiah : 1
that : 1
high : 2
yemen : 3
find : 3
limit : 1
commun : 5
grain : 23
iafmm : 4
credit : 14
administr : 1
level : 11
author : 4
bangkok : 2
survei : 1
thai : 3
feed : 28
guarante : 13
servic : 1
fiscal : 5
produc : 10
present : 1
legisl : 1
no : 3
behind : 1
best : 1
schedul : 1
switch : 2
head : 1
total : 14
oil : 14
hour : 1
bale : 7
barlei : 2
involv : 2
possibl : 2
met : 1
make : 2
on : 14
technic : 1
economist : 1
spokesman : 1
control : 1
competit : 2
bert : 1
compound : 8
due : 6
domest : 3
offici : 2
incorpor : 1
merg : 3
dominican : 1
handler : 2
pieter : 1
nation : 7
siamwalla : 1
commit : 1
injuri : 2
danger : 1
cover : 1
firm : 1
elmer : 1
reflect : 1
preferenti : 1
damag : 3
recent : 7
august : 2
stg : 8
them : 1
australia : 1
thei : 2
ministri : 8
benefit : 2
flood : 2
accept : 1
lmfe : 1
re : 2
includ : 3
highest : 4
grower : 4
qualiti : 1
secretari : 1
expel : 6
currenc : 1
seed : 1
nspa : 4
mid : 3
fishmeal : 6
seen : 6
long : 1
seem : 1
announc : 5
mij : 1
fell : 15
soya : 1
current : 12
industri : 2
free : 1
mix : 4
calendar : 6
intern : 3
polit : 1
commerc : 1
appear : 1
face : 1
bui : 2
fish : 11
dealer : 2
progress : 1
oper : 3
to : 8
fourth : 1
mani : 3
open : 2
ratio : 7
but : 2
seller : 5
linse : 3
sorghum : 3
invest : 2
sunflowerse : 2
countri : 7
sever : 1
up : 3
bare : 1
five : 3
sector : 3
us : 8
look : 1
mln : 56
ve : 1
repres : 2
netherland : 3
korea : 4
taiwan : 2
brazilian : 1
concentr : 1
campaign : 1
alloc : 3
region : 1
vs : 2
support : 1
sinc : 6
higher : 6
drop : 5
defer : 1
brazil : 2
cornfeedm : 1
rule : 4
wa : 1
everi : 1
unchang : 3
summari : 2
outsid : 1
interest : 2
appli : 2
gulf : 1
commod : 6
normal : 1
previous : 2
recognit : 2
recognis : 1
weaker : 1
step : 1
comment : 3
basi : 1
redund : 1
mark : 2
base : 4
cornglutenfe : 2
employ : 2
septemb : 6
sourc : 5
minist : 1
reach : 3
seminar : 1
biffex : 2
whole : 1
april : 12
venezuela : 3
agricultur : 24
loss : 1
problem : 1
quantiti : 1
price : 15
still : 2
van : 2
goal : 1
work : 2
contract : 4
come : 1
declin : 5
push : 2
among : 1
coverag : 2
regist : 4
ecuador : 2
spain : 1
algeria : 3
south : 12
freight : 1
north : 7
impos : 1
requir : 3
gem : 2
foreign : 1
weak : 1
fall : 7
decreas : 3
get : 1
statist : 2
place : 1
firmer : 3
suggest : 1
appropri : 1
agenda : 1
lead : 1
expect : 5
agenc : 1
self : 1
averag : 9
minimum : 1
first : 7
argument : 1
prefer : 1
data : 1
corn : 19
own : 1
argentina : 1
veg : 1
clearli : 1
depart : 18
sens : 1
portug : 1
upcom : 1
offset : 2
like : 4
edg : 1
embassi : 2
middai : 3
ground : 1
note : 3
week : 37
line : 5
deliv : 1
winter : 2
scale : 1
becom : 1
powder : 1
cypru : 1
februari : 7
said : 82
provid : 3
gafta : 4
cost : 5
will : 1
overal : 1
agrument : 1
trader : 2
versu : 2
follow : 2
sardin : 1
unlik : 2
trade : 14
cbt : 1
loophol : 1
delhi : 1
intend : 2
