4.380969070358363E-4
basket : 1
reason : 1
sourc : 1
olein : 4
told : 1
palm : 4
compris : 2
american : 1
april : 3
three : 1
attempt : 1
agricultur : 1
fix : 1
four : 1
price : 1
fluid : 1
state : 3
per : 4
cargo : 6
secretariat : 1
recent : 1
yesterdai : 1
apr : 1
ad : 2
solid : 1
stc : 4
in : 1
sunflow : 3
it : 2
secur : 2
purchas : 2
fail : 1
at : 2
includ : 1
rbd : 4
light : 1
juli : 2
algeria : 2
aim : 1
south : 1
weekend : 1
increas : 1
corpor : 3
tonn : 18
believ : 1
two : 1
crude : 1
eight : 1
result : 1
rape : 1
world : 1
mai : 2
low : 1
eas : 1
tariff : 4
place : 1
tender : 7
product : 2
reaction : 1
set : 1
bought : 3
sell : 1
malaysian : 2
march : 5
commerc : 1
the : 7
mexico : 1
s : 2
june : 2
u : 2
bui : 3
dealer : 1
report : 2
meanwhil : 1
purifi : 1
indian : 3
seller : 1
jun : 1
london : 4
corn : 1
soyoil : 2
drum : 1
mexican : 1
refin : 3
sunflowerse : 2
specif : 1
high : 1
algerian : 1
veg : 1
pai : 1
implement : 1
depart : 2
export : 1
us : 1
took : 1
shipment : 4
last : 1
rapese : 6
european : 1
valorem : 1
tax : 1
usda : 1
market : 4
fob : 1
washington : 1
option : 3
cif : 4
week : 1
import : 5
idea : 1
busi : 2
origin : 4
book : 1
for : 1
fridai : 2
india : 3
disappoint : 1
not : 1
total : 1
oil : 19
load : 1
of : 3
nearli : 1
await : 1
said : 9
pct : 1
process : 1
saw : 1
trader : 5
veget : 6
also : 2
dlr : 8
categori : 2
earli : 1
target : 1
trade : 6
avoid : 1
