7.885744326645054E-4
communist : 4
german : 2
half : 1
govern : 9
year : 10
absenc : 1
without : 1
tea : 33
temporari : 1
would : 6
quota : 1
farm : 3
volum : 1
agreement : 2
reluct : 1
illustr : 1
vietnam : 4
cocoa : 7
conserv : 2
stop : 2
accu : 3
detail : 2
much : 1
wind : 3
southern : 3
role : 1
abnorm : 4
least : 1
pronounc : 1
pork : 1
miner : 4
polici : 2
result : 3
measur : 3
close : 3
a : 2
kernel : 1
union : 2
soviet : 9
the : 34
s : 36
thi : 2
t : 1
u : 3
nine : 3
mingl : 1
good : 8
nino : 7
spring : 1
sampl : 2
insecticid : 1
advis : 1
export : 26
jakarta : 2
area : 5
pose : 1
steadili : 1
textil : 2
reduc : 2
often : 1
diseas : 1
check : 1
respect : 3
child : 1
hundr : 1
harbin : 1
prevent : 1
gavin : 1
end : 6
pct : 17
perform : 2
northeast : 1
veget : 1
anyth : 1
rice : 9
howev : 3
room : 1
estim : 11
better : 1
china : 4
agre : 1
well : 2
yangtz : 1
told : 6
occurr : 2
slightli : 2
meteorologist : 3
rig : 1
russia : 1
outbreak : 2
narrow : 1
kilogram : 1
devalu : 1
order : 1
raini : 1
geograph : 1
revenu : 1
striken : 1
ceil : 1
indonesia : 11
million : 1
even : 2
bulk : 2
aid : 1
wait : 2
other : 2
increas : 7
protection : 1
air : 1
restrict : 1
tonn : 22
articl : 1
local : 1
resum : 1
crude : 5
mondai : 1
assur : 1
yield : 2
drawdown : 1
deficit : 4
specialis : 1
tender : 1
avail : 1
product : 20
bought : 3
asian : 1
littl : 2
warmer : 1
surpris : 1
citi : 1
constraint : 1
almost : 2
upon : 1
republ : 1
quietli : 1
neg : 1
imbal : 1
biggest : 1
earlier : 2
whether : 1
insect : 1
west : 2
bureau : 1
stock : 2
suspend : 2
new : 12
took : 1
law : 1
read : 1
below : 1
swap : 2
todai : 1
tri : 1
less : 5
uniqu : 1
unit : 2
alreadi : 2
snow : 2
archipelago : 1
basic : 1
torn : 1
fruit : 1
mombasa : 1
media : 1
plywood : 1
around : 5
respons : 2
shortli : 1
disappoint : 1
and : 1
land : 2
egypt : 1
accord : 1
aircraft : 1
hectar : 1
korean : 3
conduct : 1
equilibrium : 1
shift : 2
ship : 3
concern : 2
compon : 1
mountain : 1
ctc : 3
lesser : 1
annual : 3
pakistani : 4
state : 11
coffe : 10
yesterdai : 2
broke : 3
began : 2
devast : 1
gener : 1
remain : 3
want : 2
radiat : 5
forecast : 12
inher : 1
demand : 1
each : 1
wereng : 2
kong : 2
slow : 2
letter : 3
peke : 1
suppli : 2
provinc : 3
cut : 4
recommend : 1
experienc : 1
two : 6
worth : 4
found : 3
taken : 1
larg : 3
tariff : 1
reloc : 1
anoth : 1
arm : 2
latest : 1
christ : 1
avalanch : 1
countertrad : 19
black : 1
broker : 1
balanc : 2
sugarcan : 3
understood : 2
run : 2
structur : 1
shortag : 2
late : 2
stapl : 1
difficulti : 1
given : 1
eastern : 2
last : 7
verbal : 1
develop : 1
lanka : 3
warn : 2
warm : 1
longer : 1
privat : 3
consum : 1
worst : 2
crop : 7
coastal : 1
pepper : 1
shop : 1
import : 11
reli : 1
scientist : 1
show : 6
effort : 1
peru : 3
non : 5
central : 1
introduct : 1
planter : 1
factor : 2
precis : 1
harvest : 1
green : 1
associ : 1
yet : 1
ukrain : 1
izvestia : 2
earli : 3
target : 2
chanc : 1
awai : 1
african : 1
paid : 2
short : 3
unusu : 1
time : 3
rise : 12
palm : 4
significantli : 1
three : 4
when : 1
modest : 1
crush : 2
copra : 1
fao : 1
far : 1
henan : 1
electron : 2
season : 3
payment : 2
plan : 1
pest : 2
cologn : 1
nairobi : 3
lowest : 4
coast : 2
studi : 1
memori : 1
destroi : 1
engin : 2
januari : 1
orang : 1
pattern : 3
heighten : 1
gain : 3
caus : 5
kilo : 1
nhan : 1
low : 1
wei : 2
indonesian : 5
wen : 2
wet : 1
kill : 1
grove : 1
garden : 1
small : 3
pakistan : 12
cloud : 2
dan : 1
georgia : 1
hit : 2
protocol : 1
major : 3
shown : 2
zone : 3
threaten : 2
bear : 2
bean : 1
rain : 7
kind : 1
resist : 3
daili : 4
rail : 1
particular : 1
dong : 1
rais : 1
water : 4
market : 7
most : 2
shill : 1
effect : 3
elev : 1
exchang : 6
job : 1
largest : 1
adequ : 1
part : 5
continu : 2
resid : 2
point : 1
along : 1
billion : 10
sai : 5
easi : 1
didn : 1
zimbabw : 1
caesium : 3
process : 1
amount : 1
move : 2
butter : 1
barter : 2
also : 5
diminish : 1
ajoi : 1
meal : 1
third : 2
dramat : 1
fertil : 1
hopper : 1
account : 5
extent : 1
bag : 6
railwai : 1
ban : 1
offer : 3
claus : 1
complex : 1
record : 3
outlet : 1
despit : 1
surg : 1
grow : 3
ad : 13
shrink : 1
past : 1
milk : 1
yugoslavia : 1
as : 1
plant : 4
mmtc : 4
drive : 1
hurt : 3
deal : 7
affect : 3
insignific : 1
lankan : 1
corpor : 2
sea : 2
aground : 1
search : 2
sudden : 1
by : 2
wheat : 9
term : 2
inund : 1
sen : 1
azerbaijan : 1
contain : 1
march : 11
food : 7
figur : 7
reuter : 7
june : 1
stage : 2
partner : 2
meet : 1
maximum : 1
sichuan : 2
river : 2
fibr : 1
spotlight : 1
reserv : 1
offic : 1
moscow : 7
forc : 1
dip : 2
down : 1
parti : 3
discontinu : 1
chernobyl : 1
rubber : 3
diversifi : 1
signal : 1
signific : 2
test : 6
el : 7
brown : 1
complain : 1
take : 2
colombo : 1
month : 5
octob : 1
western : 2
debt : 1
compar : 3
some : 1
for : 1
exclud : 4
back : 2
compani : 1
india : 18
univers : 1
jute : 3
discreetli : 1
kilometr : 1
rate : 2
competititv : 1
accid : 1
ga : 1
promot : 4
nuclear : 1
coincid : 1
spanish : 1
sold : 1
six : 1
asia : 2
gatt : 2
monitor : 1
dlr : 10
although : 2
form : 1
farmer : 4
iron : 3
rainfal : 8
bid : 1
spokeswoman : 2
select : 1
crowd : 1
degre : 3
convert : 2
output : 3
promis : 1
action : 2
decemb : 5
highland : 1
decis : 3
if : 1
fear : 1
georgian : 1
oct : 1
creat : 1
in : 9
belt : 2
made : 2
lower : 2
metal : 2
it : 8
hong : 2
christma : 1
deflect : 1
singl : 1
gave : 2
doe : 1
brought : 1
valu : 1
britain : 2
natur : 1
phenomenon : 1
believ : 1
eight : 4
machineri : 2
plantat : 3
world : 1
known : 3
mai : 2
stream : 1
slump : 1
member : 1
commiss : 1
heavi : 1
soybean : 5
centuri : 1
resettl : 3
break : 2
health : 1
draw : 1
cattl : 1
prospect : 4
report : 17
probabl : 1
return : 5
receiv : 3
sign : 1
cotton : 1
main : 1
british : 2
rupiah : 1
second : 1
that : 1
high : 3
strip : 1
find : 2
limit : 1
reintensif : 1
sow : 1
commun : 1
thaw : 2
petroleum : 2
level : 8
author : 4
occur : 1
bangkok : 1
difficult : 1
dry : 2
seriou : 1
servic : 4
fiscal : 5
produc : 5
present : 3
heat : 1
behind : 3
schedul : 2
certainli : 2
total : 4
oil : 10
hous : 4
possibl : 1
involv : 2
dynam : 1
make : 2
capit : 1
on : 11
or : 3
spokesman : 2
control : 1
sought : 1
sri : 4
drill : 2
equip : 2
due : 2
offici : 13
domest : 3
underlin : 1
threat : 1
po : 2
curl : 1
depend : 3
nation : 1
upper : 1
about : 1
delta : 1
stood : 1
danger : 1
firm : 6
flexibl : 1
vari : 1
strengthen : 1
damag : 4
recent : 5
secondari : 1
stc : 2
varieti : 1
edit : 1
australia : 6
ministri : 5
flood : 3
accept : 1
re : 1
includ : 11
collid : 1
autumn : 1
grower : 1
qualiti : 3
currenc : 1
seed : 1
cautiou : 1
mid : 1
sum : 1
global : 1
seek : 2
seen : 1
kei : 1
long : 1
kenya : 5
current : 4
unless : 1
excess : 1
roubl : 1
industri : 3
pump : 1
free : 3
calendar : 7
intern : 1
store : 1
commerc : 3
appear : 1
face : 2
bui : 6
household : 1
to : 3
mani : 3
open : 2
but : 4
ukrainian : 1
invest : 1
project : 1
seven : 1
zero : 1
countri : 9
sever : 2
tobacco : 2
up : 3
bare : 1
sector : 1
five : 2
us : 4
usual : 3
laboratori : 3
look : 2
mln : 21
netherland : 1
disrupt : 2
ocean : 1
electr : 1
region : 1
support : 1
sinc : 3
higher : 3
drop : 1
arriv : 2
brazil : 1
honei : 1
commerci : 1
rule : 1
detect : 1
cold : 2
organis : 2
we : 5
peopl : 6
auction : 1
interest : 2
licenc : 2
gap : 1
commod : 5
normal : 3
slight : 1
celsiu : 1
newspap : 2
drought : 9
step : 2
base : 1
septemb : 3
hydro : 1
sourc : 16
kastl : 1
trend : 1
reach : 2
type : 1
april : 4
venezuela : 1
agricultur : 11
loss : 2
businessmen : 1
problem : 2
road : 1
price : 3
asbesto : 1
weather : 9
tighten : 1
still : 3
hazelnut : 5
meteorolog : 1
contract : 1
come : 5
declin : 4
push : 1
impetu : 2
steel : 3
south : 2
precautionari : 1
requir : 1
rupe : 2
foreign : 8
across : 3
fall : 7
get : 1
eat : 1
power : 4
event : 2
leav : 1
alwai : 3
sell : 2
queensland : 2
expect : 5
help : 4
greenwood : 1
agenc : 1
pacif : 4
cannot : 1
averag : 5
indian : 10
mainli : 3
chemic : 2
date : 1
data : 2
evacu : 2
corp : 4
prefer : 1
corn : 1
separ : 1
tight : 1
divers : 1
econom : 4
stagnat : 1
replac : 1
offset : 2
like : 6
embassi : 11
sent : 3
bloc : 2
send : 1
temperatur : 3
here : 1
note : 1
week : 2
line : 1
noth : 2
link : 4
winter : 2
scale : 1
becom : 1
kenyan : 3
platform : 1
paper : 2
car : 1
februari : 4
alarm : 1
said : 55
provid : 3
inc : 2
sept : 1
cost : 1
repay : 1
will : 1
overal : 3
spent : 1
improv : 1
trade : 40
ambassador : 1
growth : 6
delhi : 3
joerg : 1
