0.03233155173924472
cancel : 1
half : 20
greenmail : 1
envisag : 4
withdrawn : 1
abrupt : 2
hall : 1
oversea : 18
brinkmanship : 1
tea : 4
successfulli : 1
would : 445
mathemat : 2
pick : 9
stumbl : 1
mcclure : 2
kta : 1
warrant : 1
ten : 3
sake : 1
coutervail : 1
solid : 1
tex : 2
switzerland : 4
stabil : 16
crossbord : 1
licht : 3
size : 4
left : 13
temper : 1
object : 16
czechoslovakia : 1
advoc : 2
role : 17
kuo : 1
turn : 18
karachi : 1
suffici : 3
elect : 5
miner : 6
polici : 125
result : 34
gold : 2
same : 1
redoubl : 2
commission : 11
after : 10
paust : 1
parliamentarian : 4
rational : 2
hand : 10
rebuild : 4
a : 88
cigarett : 1
penalis : 2
rowena : 2
deadlin : 8
c : 3
address : 9
d : 17
e : 3
f : 1
g : 8
norwai : 12
h : 4
i : 113
k : 43
l : 4
m : 10
neighbor : 1
blood : 1
n : 11
o : 7
the : 773
straight : 1
p : 2
halt : 12
sale : 36
r : 4
s : 1808
halv : 1
thi : 65
t : 58
ankara : 3
u : 1060
throw : 2
abolit : 1
wholesal : 1
x : 1
fifth : 4
z : 6
regain : 2
imag : 1
salari : 1
demonstr : 4
overdu : 1
thu : 5
undoubtedli : 1
confront : 6
deplor : 7
advic : 1
good : 192
conabl : 24
tin : 1
serious : 4
instil : 2
implement : 20
advis : 7
poepl : 1
export : 447
masashi : 1
rome : 1
practic : 50
chi : 3
reduc : 99
cuurent : 1
beset : 2
check : 2
diseas : 3
sidetrack : 4
onto : 1
gone : 4
pollock : 3
practis : 1
resolut : 11
atlant : 4
hundr : 1
cif : 2
ensur : 12
harm : 8
fortun : 2
minim : 1
cio : 2
exchequ : 5
primari : 3
protectionist : 47
denmark : 2
defus : 7
hunch : 1
root : 3
patrick : 2
hard : 28
spoil : 1
lend : 9
worsen : 8
societi : 2
whitehead : 2
ticket : 1
byrd : 7
congressmen : 11
interbank : 2
room : 5
energi : 4
better : 26
tinker : 2
imec : 2
feket : 7
permit : 8
well : 54
cancer : 1
outlook : 4
empti : 1
sydnei : 5
mortgag : 2
manageri : 1
pile : 3
cargil : 1
hata : 8
flout : 1
struck : 2
block : 10
propon : 3
propos : 92
flow : 7
order : 33
poorer : 1
colleagu : 6
went : 7
hasn : 1
revenu : 7
inter : 2
distant : 1
shipown : 3
indonesia : 24
seoul : 17
reform : 51
pharmaceut : 1
remit : 1
trariff : 1
proport : 4
southeast : 2
successor : 1
ceremoni : 4
orderli : 2
increas : 135
save : 13
overli : 1
protection : 38
nigerian : 2
matter : 14
workforc : 4
secertari : 1
scrap : 2
tom : 2
top : 17
too : 2
andr : 1
counterproduct : 4
have : 4
newsprint : 1
mandatori : 5
mickei : 1
avail : 16
product : 211
question : 32
walli : 6
spirit : 5
asian : 11
premier : 9
littl : 30
cheap : 4
noboru : 1
cheat : 2
regard : 7
rose : 98
constraint : 3
thousand : 2
minor : 3
pleas : 12
cow : 1
upon : 6
fuer : 1
republ : 2
proce : 6
lag : 3
biggest : 8
lai : 4
west : 80
worthwhil : 3
pipe : 4
cpi : 2
raferti : 1
law : 52
guilder : 3
comparison : 2
balladur : 1
rout : 5
tri : 6
less : 30
revers : 14
translat : 2
mulford : 13
eras : 1
welcom : 10
ammunit : 1
try : 48
expir : 1
arizona : 1
troop : 1
romania : 4
respons : 29
timet : 1
debtor : 9
distanc : 3
floor : 4
levi : 19
encourag : 24
inspector : 1
investor : 5
ldp : 11
spoken : 1
lengthi : 2
equilibrium : 2
respond : 12
cso : 4
angl : 2
caught : 1
aramid : 1
japan : 593
concert : 1
led : 15
absorb : 1
lee : 2
uncertain : 2
concern : 49
enhanc : 6
alver : 2
refrain : 1
pact : 82
flashpoint : 1
let : 13
state : 263
press : 29
worker : 8
cargo : 6
element : 8
gener : 89
pace : 2
night : 3
statu : 11
shrank : 1
each : 3
restraint : 10
fernand : 1
lewi : 1
suppli : 21
overse : 2
maekawa : 12
provinc : 3
liabil : 2
interagra : 1
cut : 172
yeutter : 99
stave : 1
document : 4
two : 179
theoret : 1
moment : 7
perfectli : 2
scenario : 3
attack : 8
attach : 1
acceler : 6
creation : 1
resourc : 18
think : 42
inexpens : 2
longstand : 1
team : 10
concess : 8
payabl : 1
libya : 1
illiber : 1
speech : 11
watch : 5
adminsitr : 1
quit : 4
deliber : 1
polish : 10
thinh : 1
cabinet : 10
thing : 15
fashion : 2
definit : 2
entic : 1
apparel : 2
miyazawa : 4
wolff : 2
tordai : 1
entir : 7
bias : 1
zoet : 1
budget : 67
authoris : 4
tech : 1
actual : 4
doubl : 10
eastern : 5
tension : 12
glass : 1
eric : 2
doubt : 15
roberto : 2
verbal : 1
develop : 141
misunderstand : 4
wonnacott : 5
namibia : 3
subcommitte : 38
bandwagon : 1
minsit : 1
district : 1
page : 1
full : 49
depreci : 11
eonomist : 1
becaus : 1
awar : 1
precis : 5
harvest : 3
pain : 5
ncso : 2
underutilis : 1
center : 3
start : 38
cairo : 3
shore : 1
earliest : 2
bypass : 1
supercomput : 5
equal : 9
demonst : 1
awai : 15
fallen : 6
fund : 25
paid : 7
short : 32
financi : 54
unusu : 1
commonwealth : 1
incur : 1
downward : 5
funnel : 1
palm : 3
compris : 3
three : 71
climb : 10
gestur : 1
sweden : 10
nineti : 2
tongu : 1
furiou : 1
season : 26
payment : 72
attain : 2
enter : 4
heavili : 5
prioriti : 14
earlei : 1
applic : 11
pressur : 54
preced : 1
plung : 3
memori : 11
elliot : 1
indefinit : 1
quot : 17
expansionari : 2
recogn : 3
anti : 14
lot : 8
advisor : 1
deputi : 15
low : 28
congressman : 1
prop : 1
leewai : 1
consult : 10
planner : 1
lufkin : 1
meant : 3
harrass : 1
megabit : 1
outcom : 5
municip : 1
matsui : 1
dole : 1
erod : 1
lifestyl : 1
redress : 4
perspect : 1
miet : 1
eros : 2
runawai : 1
door : 3
quick : 7
residenti : 1
tell : 9
dai : 47
manila : 3
catastroph : 1
marplan : 1
dan : 9
dam : 2
shown : 4
poehl : 8
speedi : 2
zone : 2
jordan : 4
feiter : 1
medicin : 1
affair : 24
obtain : 1
banana : 1
suppos : 1
island : 6
helsinki : 1
louvr : 1
particular : 9
water : 3
done : 16
dispens : 1
donaldson : 1
formal : 15
friendli : 1
achiev : 19
wiesbaden : 3
tens : 2
scienc : 3
volcker : 44
adequ : 2
mike : 5
part : 64
incom : 8
suicid : 1
nzier : 5
unexpect : 1
clearcut : 2
semiannu : 1
tend : 6
east : 6
saskatchewan : 2
multilater : 14
signatur : 1
relief : 20
boycott : 15
pari : 44
harshest : 1
ltd : 22
easi : 2
aizawa : 1
kokan : 1
editori : 4
herbal : 1
built : 3
reliev : 6
third : 54
dramat : 4
build : 11
earn : 15
cheng : 3
wireless : 13
further : 14
marketplac : 1
recov : 1
finalis : 2
crise : 2
ident : 2
allan : 1
intellig : 3
addit : 11
del : 10
railwai : 2
parliament : 17
den : 1
ukasta : 2
satisifi : 1
path : 1
crack : 4
presidenti : 4
bind : 5
record : 81
crisi : 19
partli : 12
chicago : 3
pass : 25
past : 28
matsunaga : 5
impact : 20
shock : 2
gosagroprom : 1
bill : 149
especi : 15
percentag : 3
whose : 10
buyer : 2
mill : 1
senior : 40
carefulli : 1
anza : 1
overral : 1
treatment : 6
indo : 1
dalian : 1
wednesdai : 4
consecut : 1
pave : 3
term : 110
rigid : 1
mine : 3
mind : 2
apartheid : 2
ming : 4
staff : 8
right : 19
tanker : 7
opposit : 9
reuter : 112
countervail : 2
influenti : 3
insid : 1
stage : 7
taught : 2
maximum : 2
borrow : 8
paus : 1
inch : 1
under : 17
paul : 19
fierc : 1
richest : 1
did : 1
spotlight : 4
deserv : 1
quarter : 117
buttros : 3
london : 33
bundesbank : 6
reserv : 38
dim : 1
shigeru : 1
dip : 2
down : 16
imped : 1
padovan : 1
later : 27
elabor : 6
diw : 5
habit : 1
livestock : 2
margaret : 7
club : 6
legal : 5
exort : 1
diversifi : 1
signal : 6
businessman : 1
impair : 1
test : 9
adebayo : 1
prematur : 1
brown : 1
bentsen : 8
retroact : 1
month : 156
final : 28
nudg : 1
injur : 3
belliger : 2
pasteur : 1
interven : 11
loan : 34
virtual : 6
anita : 1
rather : 16
back : 41
compani : 70
bach : 3
heavier : 1
nebehai : 1
miss : 1
pound : 2
load : 3
doorstep : 1
goldman : 1
kuroski : 1
industori : 1
nuclear : 2
ferro : 1
human : 1
ingredi : 1
coincid : 3
stabl : 6
anytim : 1
manufactur : 48
relax : 7
custom : 10
stirl : 1
length : 1
dlr : 565
advers : 6
gorbachev : 2
unpreced : 1
interpret : 3
faction : 1
tommi : 1
relat : 50
grant : 9
recoup : 1
lopsid : 5
spokeswoman : 10
lunch : 1
tantamount : 1
discount : 4
ignor : 6
convert : 5
construct : 8
detial : 1
elsewher : 6
attempt : 23
influenc : 9
convern : 1
gramm : 1
supplier : 1
lock : 1
latin : 5
rapidli : 11
fear : 16
shultz : 5
miti : 57
incent : 13
made : 93
printer : 1
anonym : 1
banco : 2
texa : 7
brew : 1
manag : 19
purchas : 33
axworthi : 3
field : 5
deflect : 2
taupo : 25
doe : 1
contenti : 2
weinberg : 1
upset : 5
don : 22
satoshi : 2
stamp : 1
unfortun : 1
sumatran : 1
mention : 4
government : 3
mai : 61
known : 4
joshua : 1
sewer : 1
punta : 9
commiss : 38
herald : 1
man : 1
stand : 15
mar : 2
stanc : 7
dupont : 2
variou : 3
max : 1
forward : 4
urg : 49
bless : 1
discret : 1
aluminium : 1
usa : 2
evapor : 2
subject : 4
rimmer : 1
feel : 17
edward : 5
main : 17
mca : 3
donovan : 1
nigel : 3
wright : 8
convent : 1
getti : 1
commun : 75
dri : 4
bipartisan : 3
grain : 12
usx : 4
credit : 48
exactli : 3
alter : 2
brook : 1
ideal : 2
baht : 9
monopoli : 1
bangkok : 1
mahn : 2
dry : 6
aspir : 1
failur : 23
clayton : 31
feed : 2
omnibu : 2
servic : 69
martial : 1
background : 1
nonetheless : 2
subisdi : 1
breath : 1
capitalis : 1
bale : 1
expeditur : 1
repeat : 5
micron : 2
make : 96
capit : 39
fulfil : 4
met : 11
moneylin : 1
watanab : 3
competit : 52
stake : 3
mfn : 3
due : 41
conform : 2
newfoundland : 2
inou : 1
threat : 11
baka : 1
illus : 1
princip : 1
stoltenberg : 1
inform : 30
depend : 21
about : 8
commit : 19
opec : 5
cure : 1
curb : 35
danger : 15
prudenti : 1
crash : 3
rudman : 1
bank : 159
rostenkowski : 20
meaning : 1
stick : 3
band : 1
entrepot : 1
meaningless : 2
wladyslaw : 1
coordin : 5
height : 1
murata : 1
trautman : 2
august : 5
knotti : 1
denwa : 1
frozen : 1
impati : 7
ministri : 95
benefit : 24
labor : 4
miller : 8
highest : 4
encount : 1
boost : 48
qualiti : 8
acquir : 4
auspic : 2
monthli : 10
mid : 9
acquisit : 7
chocol : 6
long : 60
uproar : 2
fell : 69
into : 4
industri : 232
relationship : 6
mix : 8
emphas : 5
recalcitr : 1
redirect : 3
prosper : 2
bother : 1
though : 5
stifl : 2
wolf : 5
polit : 44
aomi : 2
appeal : 9
appear : 22
appeas : 1
beryl : 2
jnauari : 2
progress : 40
rhetor : 2
polic : 1
oper : 9
mani : 37
open : 111
stai : 3
seller : 3
woon : 1
rebutt : 1
treat : 2
agent : 2
monei : 23
airlin : 1
invest : 51
rapid : 6
seven : 13
project : 16
genuin : 2
whatev : 3
reintroduct : 1
loom : 1
sever : 29
bark : 1
california : 5
wood : 5
tobacco : 3
taxpay : 1
evalu : 2
bassiouni : 1
crane : 1
endors : 7
lawrenc : 1
felt : 5
look : 34
mln : 366
korea : 104
alloi : 1
disrupt : 4
investig : 11
alloc : 2
kurlack : 2
allow : 42
bethesda : 1
defer : 3
knock : 1
columbian : 1
mass : 2
seattl : 1
lord : 1
mmi : 1
proper : 3
questionnair : 2
bitter : 4
speed : 8
organis : 23
peopl : 13
outsid : 3
admit : 5
common : 11
interest : 79
appli : 10
hefti : 3
uneven : 1
misguid : 1
commod : 31
twin : 1
concepcion : 11
presid : 89
mask : 1
middl : 3
postwar : 1
healthi : 10
politician : 3
reassur : 2
shiratori : 3
frustrat : 7
insur : 15
committess : 1
formula : 3
step : 32
bash : 3
basi : 17
televis : 12
sten : 1
mark : 69
base : 34
stem : 3
minist : 201
peckford : 2
trend : 19
whole : 6
apolonio : 1
senat : 78
preliminari : 4
kyodo : 4
loss : 18
businessmen : 20
mot : 1
lost : 15
still : 54
van : 1
work : 54
lose : 14
matt : 1
francoi : 1
wors : 6
suitabl : 1
toward : 25
dilson : 1
among : 31
discourag : 2
word : 8
unemot : 1
carnei : 12
algeria : 1
underestim : 1
healthier : 1
republican : 17
impos : 65
secret : 3
punch : 1
across : 4
eas : 23
eat : 1
taiwanes : 9
nebul : 1
sudan : 3
bullish : 2
hasti : 1
opinion : 2
outflow : 6
agenc : 20
seneg : 4
averag : 33
indian : 17
allen : 2
butcher : 1
aviat : 1
alleg : 27
float : 1
portfolio : 5
ecu : 2
appar : 8
stagnat : 1
upturn : 4
spell : 2
greenbaum : 2
mti : 4
offset : 6
edg : 4
anticip : 2
moreov : 1
mayb : 4
middai : 2
impli : 2
opon : 1
provision : 26
thrust : 1
enjoi : 2
guidelin : 4
eec : 1
inappropri : 3
briskli : 1
chunk : 1
talli : 2
chung : 6
platform : 2
liber : 12
eep : 11
headlin : 2
spend : 32
banqu : 1
grave : 2
zhao : 3
stephen : 5
overal : 16
spent : 2
instead : 10
improv : 63
jack : 1
unlik : 10
slash : 11
retir : 2
controversi : 9
dimens : 1
perman : 4
marlin : 4
communist : 6
exception : 2
refus : 9
year : 569
defici : 1
via : 3
temporari : 5
markedli : 2
counsellor : 2
defict : 1
volum : 23
near : 10
automobil : 1
agreement : 208
instruct : 6
mayor : 1
agreem : 1
merchant : 1
version : 6
cocoa : 3
prevar : 1
staunch : 2
stop : 51
handl : 2
economi : 124
detail : 12
kawasaki : 1
eic : 2
least : 19
communiqu : 1
cede : 1
eiu : 13
forese : 2
measur : 81
machin : 3
stagnant : 1
sweep : 2
learn : 2
doumeng : 3
policymak : 3
neck : 2
anniversari : 2
descent : 2
nebr : 1
cmte : 1
invok : 3
uncompetit : 3
exploit : 1
issuanc : 1
dauster : 1
slap : 5
lastingli : 1
substant : 1
beneficiari : 1
eager : 1
camdessu : 1
pryor : 4
undertak : 1
toppl : 1
stun : 1
thorni : 1
specif : 19
steepli : 1
mylrea : 2
lokken : 1
georg : 7
mollifi : 1
doesn : 5
chimerin : 2
need : 99
wrote : 1
often : 6
gather : 5
insist : 11
liberalis : 8
els : 3
substanc : 1
transact : 6
risen : 6
canada : 73
inroad : 2
altern : 3
antara : 3
breakdown : 2
belgrad : 3
famili : 2
agro : 1
stretch : 2
accomplish : 2
softwar : 1
von : 6
medan : 1
attitud : 4
end : 87
strang : 1
yugoslavian : 1
vow : 2
rica : 2
otherwis : 6
particip : 9
rich : 11
veget : 8
rice : 5
howev : 47
linda : 3
estim : 35
special : 19
forum : 5
environment : 1
agre : 71
numer : 2
contempl : 2
chiefli : 2
skinner : 1
slid : 2
career : 1
copyright : 5
donat : 7
slacken : 1
told : 196
specul : 1
slim : 2
jano : 1
riski : 3
stipul : 3
moral : 1
slightli : 15
rancor : 1
leverag : 2
specifi : 3
herman : 2
narrow : 46
nan : 1
ababa : 2
secretariat : 1
newli : 10
invis : 15
similar : 12
contradict : 2
partnership : 1
shape : 2
invit : 2
evelyn : 1
ceil : 3
vri : 1
nicaragua : 3
seventh : 1
chandross : 1
driven : 2
jame : 28
masaharu : 2
tone : 10
against : 8
turnaround : 2
tonn : 15
swell : 2
crude : 14
manufacturer : 1
remind : 1
jurisdict : 2
pictur : 5
assur : 9
thoroughli : 2
assum : 3
era : 1
share : 23
optimist : 5
deficit : 368
holidai : 1
chairman : 48
uruguai : 34
bushel : 2
notic : 3
sharp : 8
potash : 9
notif : 2
surpris : 4
standstil : 2
slip : 6
exampl : 12
francisco : 3
cent : 24
est : 10
honor : 5
spice : 1
screen : 3
nec : 10
neg : 6
imbal : 42
bureau : 12
net : 17
new : 212
took : 15
steeper : 2
escap : 1
unreservedli : 2
escal : 2
shall : 4
choos : 1
zhou : 1
tool : 1
soundli : 1
therefor : 6
medic : 3
benderlei : 1
around : 45
lightweight : 1
harden : 2
gill : 1
islam : 5
ecgd : 3
calcul : 10
gilt : 4
harder : 3
immens : 2
haven : 5
vsevolod : 1
egypt : 7
promissori : 1
oilse : 1
transport : 1
korean : 25
strategi : 7
photocopi : 1
spectr : 2
territori : 4
super : 7
misfortun : 1
dispar : 1
previou : 16
martin : 1
caldwel : 1
makoto : 3
unfavor : 1
storag : 2
flare : 1
slifer : 1
belgian : 5
maintain : 23
shift : 13
rhone : 2
tarriff : 1
nic : 11
echo : 4
johnson : 7
bargain : 4
alaskan : 3
zealand : 45
angrili : 1
pessim : 1
circumst : 1
remain : 56
chirac : 16
rotat : 1
jitter : 1
slow : 20
necessarili : 1
iowa : 1
envoi : 4
appl : 2
regrett : 1
recommend : 20
comeback : 1
tropic : 4
unfavour : 2
departn : 1
graf : 1
black : 3
derivit : 1
balanc : 70
wordwid : 1
fulli : 1
kunio : 1
such : 5
carlson : 2
earnng : 1
metric : 1
principl : 14
understood : 1
nesi : 1
oppos : 17
hugo : 1
florida : 2
swung : 3
likewis : 2
philip : 1
reconven : 1
refin : 2
research : 15
reorgan : 3
technolog : 25
white : 29
acknowledg : 8
counterpart : 6
thailand : 3
segment : 4
cacex : 2
huge : 22
mitsubishi : 1
imposs : 3
might : 32
examin : 5
deflationari : 2
irrit : 6
reconstruct : 1
reopen : 1
tamura : 11
inflow : 8
next : 89
vaccum : 1
bernard : 2
import : 390
submit : 2
hidden : 1
focu : 11
non : 46
summit : 7
nor : 1
scientif : 3
caspar : 1
not : 13
central : 30
jacksonvil : 2
now : 15
nearli : 18
statement : 41
shien : 2
trademark : 2
hanov : 1
factor : 20
wai : 102
lehman : 2
rack : 3
jardin : 5
europ : 40
josef : 1
war : 60
greet : 1
mamman : 6
ortner : 2
grew : 12
ronald : 6
deliveri : 7
what : 9
refer : 6
african : 20
israel : 1
risk : 19
rise : 119
guillaum : 1
grei : 11
discard : 2
criteria : 4
fad : 1
significantli : 11
when : 4
modest : 7
plai : 11
fan : 1
crush : 1
kathleen : 1
far : 20
quickli : 16
unfairli : 3
fat : 12
electron : 52
greec : 1
catch : 2
plan : 127
give : 45
leahi : 2
obviou : 1
sumatra : 2
lowest : 8
rangoon : 2
collaps : 6
explicit : 1
studi : 29
propens : 2
subsidi : 34
futur : 21
prevail : 1
everyth : 5
suit : 1
allevi : 2
keat : 17
denial : 1
implicit : 2
muscl : 2
portion : 2
direct : 19
microchip : 50
gain : 27
mechan : 3
nobuo : 1
passag : 7
manoeuvr : 3
berlin : 6
collater : 1
janeiro : 7
earner : 1
indonesian : 3
disput : 75
grit : 1
kremlin : 1
great : 14
wrong : 3
markka : 4
inflat : 36
gemeinwirtschaft : 1
indebted : 3
certain : 22
advanc : 4
board : 21
heritag : 1
feb : 6
donna : 1
fed : 9
arrest : 2
section : 10
abrog : 1
whip : 2
protocol : 1
threaten : 19
few : 4
constantli : 1
amtorg : 2
strain : 10
rain : 4
irrat : 3
desper : 2
orient : 1
rail : 2
sunk : 1
rais : 32
plea : 4
usda : 5
market : 328
warburg : 3
keen : 5
intensifi : 4
cereal : 7
roldan : 3
turkish : 3
overhaul : 1
keep : 20
effect : 49
topic : 2
cumul : 4
sugar : 10
who : 1
option : 7
appreci : 15
weigh : 2
dhaka : 2
reagan : 135
forthcom : 1
unveil : 5
crucial : 3
faith : 2
remark : 18
everyon : 3
strive : 1
donor : 2
along : 2
frolov : 4
peanut : 2
tangibl : 1
david : 16
wil : 1
win : 6
didn : 1
breach : 5
tremend : 1
iceland : 2
barter : 5
diminish : 2
shine : 1
surpass : 2
bergsten : 3
lyle : 1
visit : 47
approv : 44
user : 3
confus : 1
confid : 13
extent : 4
claud : 1
extens : 6
yamaichi : 1
plough : 2
bring : 20
indianapoli : 1
reneg : 10
sadat : 1
frenzel : 3
academ : 1
brink : 4
yamamoto : 4
squeez : 1
rand : 6
fit : 1
claus : 6
unsettl : 1
fix : 10
nza : 1
conciliatori : 6
giant : 3
pension : 1
rank : 1
rang : 23
addition : 1
neglect : 1
despit : 24
aa : 1
surg : 12
grow : 62
ad : 136
sure : 18
shrink : 6
ag : 4
elig : 3
automat : 5
an : 7
former : 8
extend : 9
ar : 6
fold : 1
as : 26
at : 28
lyng : 4
steven : 1
constitut : 3
brother : 3
hurt : 12
frank : 9
refineri : 1
be : 9
prove : 5
insignific : 2
tomato : 1
vaccin : 1
domin : 8
search : 3
sudden : 4
by : 63
groundwork : 3
franc : 68
fla : 4
panel : 21
tooth : 1
ziyang : 1
fli : 1
edgar : 2
willi : 10
co : 15
freeli : 2
unprofit : 1
food : 9
figur : 113
fly : 1
withdrew : 1
franz : 1
partner : 45
infrastructur : 1
persaud : 1
confin : 1
affili : 2
voter : 1
interview : 19
equiti : 2
de : 39
justif : 1
scarc : 1
ditch : 4
eprom : 1
dl : 2
payrol : 1
forc : 45
extern : 26
do : 7
woe : 1
justic : 1
midsess : 1
outlin : 11
won : 23
garment : 1
inclin : 1
ec : 171
michel : 4
utmost : 1
ed : 2
which : 2
signific : 14
admiss : 3
paraguai : 3
kirkland : 4
carri : 7
emigr : 1
nutur : 1
integr : 3
profound : 1
ev : 2
never : 1
clarifi : 3
ex : 2
aggress : 8
fob : 3
activ : 13
fa : 3
burst : 1
hispan : 2
frame : 1
indic : 18
criticis : 4
fom : 1
dawkin : 6
murtha : 1
origin : 7
for : 43
exclud : 17
india : 36
content : 4
burden : 8
random : 4
hover : 1
overhang : 1
rate : 140
sanction : 68
alert : 1
skill : 3
ga : 9
modestli : 1
samaila : 2
spanish : 1
nikolai : 1
go : 60
gatt : 169
yukio : 1
dalla : 1
counter : 2
kept : 6
muraoka : 1
preparatori : 1
treasur : 4
counten : 1
rash : 1
form : 17
clark : 15
publish : 7
jenrett : 1
ha : 8
restor : 10
renew : 8
he : 216
waiver : 6
withdraw : 3
assign : 1
hi : 7
congress : 76
geneva : 12
poland : 15
ho : 4
canadian : 38
generalis : 3
easili : 2
degre : 2
altogeth : 1
commuiti : 1
moroni : 1
ventur : 9
carol : 2
veri : 2
verg : 2
william : 5
dram : 7
four : 39
context : 2
brien : 4
ib : 1
ic : 3
drag : 2
if : 32
french : 36
il : 1
im : 1
in : 215
lower : 66
metal : 7
index : 14
worldwid : 7
is : 19
it : 168
odd : 5
surviv : 2
smit : 1
advisori : 5
weaponri : 1
contrast : 6
becam : 2
gave : 14
je : 2
wider : 2
fso : 6
widen : 33
suharto : 2
harwood : 5
ussr : 4
hungarian : 2
believ : 19
settlement : 7
slump : 5
veto : 7
ottawa : 10
finland : 2
kk : 1
themselv : 2
draw : 3
off : 2
antagonis : 1
tunisia : 3
lb : 1
tendenc : 1
li : 2
ll : 9
ineffici : 5
expans : 11
lo : 3
receiv : 7
fsical : 1
jeopard : 1
endang : 1
while : 19
second : 24
sidelin : 2
that : 57
faster : 8
morgan : 6
conclud : 5
than : 2
limit : 35
me : 1
claim : 7
widespread : 5
denomin : 2
brian : 6
mi : 1
chronic : 2
sepemb : 1
entri : 1
thad : 1
mo : 1
contest : 1
mp : 4
mr : 2
turmoil : 1
author : 134
survei : 4
thai : 1
my : 2
wrench : 1
chosen : 1
daniel : 1
qustion : 1
expand : 29
cosmet : 1
fiscal : 27
precipit : 1
nd : 1
coal : 6
updat : 1
legisl : 72
heat : 5
no : 10
gradin : 3
hammer : 2
student : 2
bridg : 1
burma : 4
schedul : 17
nz : 2
head : 19
oil : 100
of : 31
possibl : 37
somehow : 1
fight : 10
hear : 13
on : 205
blah : 90
brief : 5
purpos : 5
or : 10
clair : 1
conclus : 5
embark : 3
complianc : 4
ow : 1
confer : 20
friction : 14
drew : 4
pretti : 5
equip : 19
easier : 7
jenkin : 2
voluntarili : 1
pl : 2
whichev : 1
dominican : 2
nation : 158
inclus : 2
salah : 1
rocket : 2
censu : 3
oki : 6
provinci : 4
factori : 3
necessari : 13
damag : 13
toshiba : 4
recent : 54
brand : 3
varieti : 6
old : 2
them : 6
then : 3
thei : 54
mulronei : 16
indiffer : 1
re : 26
includ : 103
readili : 1
adopt : 18
unfound : 2
brasilia : 1
madrid : 1
austria : 1
islamabad : 1
minut : 3
cautiou : 2
culmin : 2
overproduct : 1
seek : 38
seen : 24
seem : 20
kenya : 2
poorest : 4
bleu : 2
venic : 9
disturb : 7
samuel : 4
persist : 5
so : 25
caution : 5
thatcher : 12
calendar : 10
rollback : 2
st : 2
intern : 132
onc : 1
centr : 8
heed : 2
closer : 4
boomerang : 1
pledg : 7
increasingli : 14
pull : 2
cement : 2
th : 6
enforc : 11
ti : 13
remov : 11
dealer : 12
assist : 12
automot : 1
to : 131
shortfal : 14
tv : 1
joint : 25
willing : 9
satisfactori : 2
countri : 350
uk : 5
noir : 3
up : 14
us : 72
regularli : 1
tonnag : 1
usual : 5
belgo : 2
solut : 18
bywat : 4
ve : 10
chancellor : 7
vi : 2
recess : 13
extract : 1
outspoken : 1
know : 8
bolster : 2
region : 3
support : 51
vs : 5
adedeji : 3
vt : 2
punt : 1
drop : 57
zdzislaw : 1
econometr : 2
breakthrough : 2
wa : 6
cold : 5
pure : 4
we : 120
unchang : 8
life : 1
licenc : 6
gap : 26
dane : 1
choic : 2
slight : 1
wide : 17
previous : 8
licens : 3
christoph : 3
brighter : 1
coke : 1
distribut : 3
honda : 3
anthoni : 1
statistician : 1
superior : 1
deeper : 1
forego : 1
hostil : 1
sourc : 85
held : 18
melicia : 2
woven : 1
deepli : 2
rasmussen : 2
none : 2
type : 5
ye : 6
april : 94
beyond : 4
seper : 1
yi : 1
problem : 87
scant : 3
ontario : 4
proof : 1
phase : 1
method : 4
contract : 8
voluntari : 4
sluggish : 11
come : 52
credibl : 3
dant : 1
push : 18
leather : 1
octoer : 1
exist : 11
gdp : 12
johannesburg : 1
penalti : 7
undersecretari : 5
exact : 3
lift : 10
steelmak : 1
feder : 44
regist : 2
ecuador : 1
destabil : 1
educ : 10
henc : 1
south : 121
north : 6
lastli : 1
copi : 1
matsushita : 1
our : 4
out : 11
cope : 1
counterfeit : 1
induc : 1
get : 43
statist : 42
accus : 16
power : 30
packag : 18
barber : 4
accur : 1
semi : 2
alwai : 4
danish : 1
bubbl : 1
cook : 3
sell : 45
cool : 1
pickup : 1
militari : 5
coffin : 1
suspect : 1
help : 70
yong : 3
unravel : 1
unadjust : 3
self : 2
prong : 1
revis : 41
asset : 9
minimum : 9
chemic : 9
date : 8
kilobit : 3
tuesdai : 1
data : 21
corp : 27
corn : 4
sound : 7
own : 3
separ : 16
reesent : 1
drug : 1
circl : 1
barrier : 37
costa : 2
argentina : 4
quadrupl : 1
blow : 1
replac : 5
embrac : 1
macroeconom : 3
sens : 3
portug : 3
upcom : 2
like : 84
maxim : 1
embassi : 5
kuranari : 9
brisk : 1
sent : 9
bloc : 6
loewi : 3
core : 2
council : 48
reaffirm : 5
ground : 5
jorio : 1
dash : 1
send : 15
here : 16
note : 43
futher : 1
regret : 3
line : 22
noth : 4
link : 11
scale : 8
revok : 4
becom : 28
limp : 2
everybodi : 1
davo : 2
recoveri : 9
cost : 42
lima : 4
daub : 2
will : 22
sputnik : 4
passeng : 4
treati : 2
smoke : 1
intens : 2
follow : 33
intent : 5
york : 17
swollen : 1
arbitrari : 1
loophol : 6
disciplin : 1
intend : 17
brussel : 14
german : 40
ultim : 5
govern : 223
sovereignti : 4
elimin : 7
slower : 5
without : 23
these : 7
upwardli : 1
extrapol : 1
sister : 1
mechanisim : 1
sometim : 4
serv : 4
intellectu : 3
reluct : 5
baker : 61
groov : 1
journalist : 6
befor : 5
tarrif : 1
illinoi : 5
seri : 5
much : 50
wine : 10
wind : 4
ahead : 20
engag : 5
blur : 1
concili : 1
gmt : 4
differenti : 2
enorm : 4
shoichi : 3
gnp : 14
tradit : 9
renato : 1
union : 35
soviet : 60
baldrig : 54
overwhelm : 1
germain : 1
goe : 8
wrap : 3
discuss : 53
standard : 7
deadli : 1
taipei : 17
poulenc : 2
correct : 25
shearson : 1
chill : 1
got : 6
wish : 3
sharpli : 25
exceed : 4
pai : 6
minoru : 1
avert : 11
pap : 2
jakarta : 4
area : 36
pat : 2
fuell : 1
emot : 1
shipment : 26
strident : 1
european : 89
textil : 48
pay : 2
list : 15
andrew : 4
lack : 8
success : 20
anybodi : 1
aren : 2
superpow : 3
weekli : 2
chile : 1
synthet : 1
semiconductor : 132
treasuri : 51
instrument : 2
medium : 13
wisdom : 1
fatal : 1
multitud : 1
determin : 14
grenfel : 1
germani : 49
combin : 5
phylli : 1
realign : 1
bruce : 1
live : 28
pct : 394
peac : 1
perform : 9
peak : 4
alberta : 1
with : 24
argu : 10
kokusai : 1
china : 79
complaint : 17
certif : 4
there : 47
victori : 1
fromartz : 1
barclai : 2
analyst : 68
inject : 1
hissen : 1
gsm : 2
downturn : 3
gsp : 5
strongli : 11
channel : 2
american : 73
penetr : 1
hamper : 3
desir : 4
approach : 15
havana : 1
peg : 1
imposit : 1
pep : 1
per : 20
disagr : 2
write : 14
devalu : 9
wage : 9
period : 42
africa : 41
proceed : 1
geograph : 1
prolif : 1
understand : 16
dismiss : 3
peck : 3
rechannel : 1
ever : 8
winner : 1
million : 7
even : 32
aris : 1
selloff : 1
forstal : 1
schultz : 2
undermin : 6
bulk : 4
dubiou : 1
bull : 1
larger : 5
waiv : 3
wait : 6
buoi : 2
circuit : 2
egyptian : 3
institut : 43
sizeabl : 4
costli : 5
restrict : 44
articl : 4
entiti : 3
concret : 3
mondai : 3
accordingli : 1
peev : 1
particularli : 17
univer : 1
piraci : 1
luxembourg : 2
kohl : 4
slowli : 5
laid : 2
robust : 1
bought : 12
helmut : 2
succesful : 1
excus : 2
gamut : 1
frankfurt : 4
neyra : 5
enterpris : 1
harmoni : 5
framework : 1
keidanren : 3
meanwhil : 6
bonker : 1
instanc : 1
tide : 1
prohibit : 5
almost : 10
steward : 1
stationeri : 2
motiv : 2
manner : 3
deadlock : 1
quietli : 2
syndrom : 1
wake : 3
earlier : 73
judgment : 1
pin : 1
whether : 40
unabl : 5
disinfl : 1
compensatori : 1
stock : 23
sneak : 1
turnabout : 2
suspend : 5
terror : 3
evid : 12
voic : 5
swap : 3
transpir : 1
absolut : 1
unconvinc : 1
temptat : 1
ethic : 1
governor : 6
cartel : 3
evil : 1
virginia : 2
basic : 25
hurdl : 1
headach : 1
unrel : 1
mmete : 1
fruit : 8
bush : 2
busi : 34
unclear : 1
unanim : 8
fridai : 17
combat : 2
minimis : 1
ompani : 1
design : 15
suspens : 1
extra : 1
land : 4
redeem : 1
lane : 4
bumbl : 1
chief : 21
plc : 7
accord : 62
aircraft : 13
forfeit : 1
hectar : 4
procur : 5
chien : 3
sahara : 2
conduct : 4
chipmak : 16
plu : 3
overfli : 1
wall : 1
walk : 2
cultur : 5
disclos : 2
laps : 1
tailspin : 1
lessen : 4
decad : 2
lesser : 4
eventu : 4
coffe : 19
yesterdai : 35
unprocess : 1
began : 4
want : 74
bueno : 1
realiti : 5
forecast : 78
mute : 1
inher : 4
hillier : 2
processor : 2
kong : 19
channon : 10
wang : 11
foresaw : 1
wane : 2
must : 72
creditor : 5
peke : 15
memorandum : 3
resign : 2
realist : 4
defianc : 1
misplac : 1
facto : 1
ward : 6
stimul : 20
chase : 5
oslo : 4
found : 5
freer : 4
prais : 3
ludicr : 2
larg : 50
tariff : 160
anoth : 44
freez : 3
advantag : 8
colombia : 1
latest : 25
pend : 3
overreact : 3
ryohei : 1
surplus : 31
tragedi : 2
manhattan : 2
revalu : 15
telephon : 2
adverseri : 1
charg : 18
charl : 1
chart : 1
hungari : 15
prepai : 1
friendship : 1
attend : 11
smith : 9
sumitomo : 1
consortium : 3
statutori : 1
prepar : 42
had : 2
align : 1
lynch : 5
hai : 1
hal : 1
structur : 17
late : 25
outpac : 1
immor : 1
allegedli : 2
given : 16
pre : 1
last : 317
adapt : 4
weight : 5
arbit : 1
warn : 48
nomin : 8
attent : 3
wari : 2
ferrou : 1
receipt : 2
foodstuff : 1
focuss : 1
tini : 1
domenici : 1
sesam : 1
effort : 71
showdown : 3
video : 3
peru : 15
steadi : 4
wave : 2
unsmooth : 2
weapon : 1
stronger : 13
endo : 1
vote : 21
cruzado : 2
yen : 62
argentin : 1
solidar : 2
caputo : 2
yet : 19
incipi : 1
earli : 35
chanc : 21
dictat : 1
deregul : 9
chang : 66
multin : 1
koss : 1
time : 73
embargo : 2
hatakeyama : 1
unrealist : 1
arsen : 1
program : 32
percept : 5
infant : 1
put : 28
multi : 2
pete : 2
her : 6
deflat : 1
trap : 1
tran : 2
unaccept : 2
torpedo : 1
kansai : 8
russian : 3
iran : 1
persuad : 10
baptist : 1
praug : 2
jacqu : 7
ethiopia : 1
light : 7
happi : 5
mccain : 1
standpoint : 2
merril : 5
judg : 3
tabl : 9
engin : 5
carson : 2
arkansa : 1
januari : 229
tourism : 1
denshin : 1
tadashi : 5
smart : 5
tourist : 3
kaczurba : 2
repeatedli : 5
rebound : 4
carlsson : 3
grown : 2
undesir : 1
tire : 1
hamburg : 1
budgetari : 2
barrel : 7
puchas : 1
footwear : 1
chad : 2
predatori : 4
sword : 2
mosti : 1
struggl : 1
foster : 9
motorola : 1
travel : 1
chao : 2
pye : 3
small : 4
pakistan : 7
him : 1
listen : 1
flatten : 2
hit : 36
major : 99
juic : 3
disast : 1
emphasis : 4
bear : 7
consider : 13
bean : 1
group : 38
gross : 19
omiss : 3
employe : 2
resist : 10
dampen : 1
tree : 1
coppernickl : 1
sendai : 1
twice : 2
soar : 9
discriminatori : 2
histori : 1
exchang : 88
sustain : 12
request : 15
procedur : 6
howard : 12
enger : 3
their : 6
bilater : 52
novemb : 7
point : 35
lender : 2
frighten : 2
nicol : 2
maslen : 1
compens : 2
chen : 3
facil : 6
zimbabw : 1
process : 28
etienn : 1
attribut : 13
clear : 23
eighth : 3
eighti : 1
ajoi : 2
mean : 53
neither : 2
stablis : 1
glad : 1
cooper : 37
account : 138
brull : 1
stimulu : 2
been : 3
japanes : 324
porfolio : 1
beef : 10
simplifi : 2
surcharg : 1
mostli : 3
trip : 14
trim : 1
killen : 1
nervou : 2
jacquelin : 7
accommod : 1
tesfai : 3
strict : 2
beet : 2
lloyd : 8
you : 11
beer : 1
subsidiari : 3
jump : 13
soft : 3
prime : 44
happen : 5
seamless : 4
perceiv : 1
fefac : 1
burnham : 1
hwwa : 1
enthusiast : 2
nakason : 78
court : 3
yugoslavia : 6
cours : 4
distort : 3
ralli : 3
dealt : 1
juli : 24
abat : 1
mmtc : 7
preserv : 5
organ : 11
hog : 1
zurich : 1
troubl : 3
mirror : 1
depict : 2
unwilling : 6
corpor : 9
hot : 1
pursu : 3
releas : 14
releat : 1
peter : 5
spark : 4
unresolv : 1
unregul : 2
regul : 11
spare : 4
fluctuat : 7
chip : 117
gover : 2
supplementari : 1
reflat : 1
march : 365
stephani : 1
june : 24
meet : 158
answer : 8
archer : 2
thursdai : 11
fibr : 4
glen : 1
spokesmen : 5
moscow : 17
brasil : 2
hold : 20
convinc : 11
prior : 2
rubber : 3
talk : 134
train : 3
richard : 15
contradictori : 1
ingenu : 1
accompani : 3
trough : 1
repli : 13
take : 117
taka : 3
blame : 5
cochran : 1
octob : 35
perhap : 4
some : 10
stein : 1
session : 12
divis : 4
amstutz : 4
edibl : 2
underli : 7
univers : 3
malaysia : 5
samurai : 1
jute : 4
discreetli : 2
abid : 6
solv : 22
petit : 1
soften : 1
just : 1
primarili : 2
softer : 1
outward : 1
agreeeement : 1
sole : 1
sold : 11
coupl : 3
lumber : 4
asia : 9
ethiopian : 2
monitor : 2
gramlei : 3
home : 9
michael : 11
print : 4
condit : 10
although : 21
holl : 1
iron : 7
diplomat : 33
huh : 2
explain : 9
basket : 3
unionist : 1
visibl : 13
hope : 56
artifici : 1
soon : 26
norwegian : 13
america : 18
hook : 1
murakhovski : 5
tape : 1
renegoti : 2
action : 87
creat : 6
abil : 6
undercut : 2
protest : 6
hong : 19
culprit : 1
afford : 2
effot : 1
singl : 5
hardest : 2
impedi : 2
schlumberg : 1
shield : 1
britain : 43
longest : 1
rotterdam : 5
natur : 6
uncorrect : 1
negot : 1
phenomenon : 1
guaranti : 3
summer : 7
deriv : 2
eight : 28
machineri : 12
robert : 13
plantat : 1
disadvantag : 3
file : 2
buoyant : 1
member : 47
steve : 3
accredit : 1
quarterli : 1
reclassifi : 1
heavi : 10
independ : 5
nigeria : 3
within : 34
could : 123
strike : 5
cutback : 6
health : 2
trigger : 11
allegi : 2
ingvar : 2
incompat : 2
prospect : 18
mediterranean : 3
exercis : 2
chri : 2
explan : 1
kiichi : 3
probabl : 19
royalti : 2
return : 20
cheaper : 5
sophist : 4
british : 32
reput : 2
radio : 2
bern : 1
fendt : 10
fine : 3
find : 17
adher : 5
host : 3
regardless : 2
upward : 6
fujitsu : 6
sooner : 1
occur : 6
raider : 5
difficult : 19
film : 2
sort : 3
nippon : 2
fill : 2
presenc : 1
seriou : 17
heart : 5
lawmak : 17
guarante : 3
professor : 2
task : 2
transit : 2
tast : 1
sore : 1
bludgeon : 1
present : 34
curtail : 2
sentiment : 14
gradovil : 1
patent : 8
cornerston : 3
fran : 1
best : 12
sooth : 2
certainli : 6
transform : 3
execut : 13
fundament : 10
hour : 11
sterl : 13
youssri : 1
hous : 127
competitor : 2
leadership : 3
distinctli : 1
heard : 1
spokesman : 47
abov : 1
sought : 11
discredit : 1
tougher : 1
domest : 115
unsuccess : 1
mere : 1
widerang : 1
underlin : 2
toughen : 12
disagre : 1
salomon : 2
scream : 1
cover : 15
firm : 71
illusori : 1
anwar : 1
reflect : 19
preferenti : 3
kyat : 3
flexibl : 11
fire : 6
immedi : 16
democraci : 2
setback : 1
congression : 17
therebi : 2
dinka : 1
wartenberg : 4
rude : 5
citru : 2
intransig : 2
declar : 10
except : 13
programm : 6
nevertheless : 4
fact : 10
debat : 17
fitzwat : 6
global : 21
fist : 1
announc : 48
woong : 6
indebt : 6
abus : 2
saturdai : 2
fade : 2
unless : 14
excess : 9
ian : 3
roubl : 1
fred : 1
free : 46
ought : 3
honour : 1
reaction : 2
commerc : 47
suzann : 1
face : 37
ingrain : 1
abandon : 1
glut : 1
oldest : 1
ratif : 5
fish : 3
household : 2
concessionari : 1
tripl : 1
ratio : 2
ruiz : 3
undervalu : 2
shrug : 1
ico : 3
retaliatori : 23
diversif : 1
restrain : 3
jean : 2
five : 61
edouard : 1
laboratori : 1
spill : 1
idb : 4
ida : 1
pritchett : 3
qtr : 5
repres : 58
coconut : 2
hunger : 1
raton : 2
idl : 1
netherland : 2
concentr : 3
inspect : 1
campaign : 1
guid : 2
vital : 11
conflict : 16
rough : 1
commerci : 15
tsba : 2
rule : 49
blinch : 2
condemn : 1
everi : 6
regim : 2
canvass : 1
popularis : 2
outfox : 1
depriv : 1
gulf : 1
wonder : 4
keller : 1
offshoot : 1
entail : 1
sulphur : 1
again : 6
exposur : 1
annoi : 2
resembl : 1
popul : 1
jason : 1
comment : 29
excis : 1
indiana : 1
employ : 19
unreason : 1
intermedi : 1
septemb : 49
safeti : 1
fair : 16
venezuela : 4
consist : 3
agricultur : 127
vulner : 4
critic : 25
quantiti : 1
otto : 1
price : 159
melcher : 4
hesit : 2
rattl : 1
declin : 84
fail : 26
solomon : 6
itself : 1
restructur : 15
dunnen : 1
osamu : 1
gotoda : 2
lesli : 1
prolong : 1
impetu : 5
coverag : 1
refund : 2
broadcast : 1
steel : 22
spain : 8
diesel : 1
singapor : 4
osaka : 2
steep : 2
thalmann : 1
sympathis : 1
requir : 48
rupe : 9
foreign : 260
nick : 2
uniform : 1
fall : 84
decreas : 7
pois : 3
undergo : 1
finger : 1
bnpp : 1
appropri : 11
agenda : 1
nice : 1
liquid : 1
holocaust : 2
cannot : 26
first : 93
mainli : 13
quantit : 1
durabl : 4
prefer : 7
lambert : 1
fewer : 4
poll : 7
pole : 1
tight : 6
space : 1
heller : 5
detent : 2
monetari : 32
modernis : 3
chamber : 5
spite : 2
telecommun : 24
simpl : 1
from : 7
clearli : 14
depart : 66
fumbl : 1
hardwar : 1
swedish : 8
bottom : 4
ill : 4
garcia : 4
fals : 1
arnott : 3
phillip : 2
speaker : 7
repair : 1
imf : 12
manuel : 1
frequent : 3
dinar : 7
membership : 2
occas : 1
vincent : 1
outright : 1
error : 3
benderli : 1
stricter : 1
network : 4
terrorist : 1
public : 29
paper : 7
takeov : 4
confeder : 2
endeavour : 4
idaho : 1
track : 7
inc : 9
inf : 2
repay : 7
fertilis : 2
trader : 9
yugoslav : 5
emploi : 3
trade : 1652
repai : 4
round : 59
applianc : 1
ambassador : 10
growth : 137
oliv : 1
mainstai : 3
dutch : 6
describ : 8
score : 1
commerzbank : 1
substanti : 19
poor : 10
quota : 21
rah : 2
farm : 43
rag : 2
rai : 2
misalign : 1
ran : 5
ram : 1
aberr : 2
rap : 1
illustr : 2
pool : 1
raw : 5
moratorium : 1
conserv : 13
airport : 8
fairli : 2
oversold : 1
degener : 1
southern : 2
fate : 1
hasten : 1
pork : 3
dollar : 186
enourm : 1
dual : 1
aspect : 3
close : 37
oaklei : 2
michigan : 1
paemen : 3
expenditur : 3
abl : 15
unleash : 1
distributor : 3
swine : 1
materi : 3
swing : 7
industrialis : 13
fast : 11
merchandis : 10
mandat : 9
exce : 2
uncertainti : 4
nine : 12
waseda : 1
rural : 1
contribut : 16
sumita : 4
acid : 4
pechinei : 3
red : 1
overshoot : 1
act : 30
post : 24
rei : 1
rel : 12
itc : 3
finish : 4
remedi : 2
rep : 13
warsaw : 1
incomplet : 1
swift : 1
add : 1
mideast : 1
amortis : 2
initi : 19
chines : 16
pose : 2
amend : 17
steadili : 1
reciproc : 8
erupt : 2
equival : 3
massiv : 9
unpopular : 1
discrimin : 3
respect : 9
retreat : 2
mutual : 6
port : 2
isol : 5
inact : 1
washington : 208
conced : 1
trust : 5
nipn : 1
consequ : 3
prevent : 19
overnight : 2
laser : 1
wroblewski : 4
scope : 4
pasta : 1
inabl : 3
benefici : 2
modifi : 1
aggrav : 4
afl : 2
nitrogen : 1
administ : 1
stoval : 1
succe : 6
contin : 2
downgrad : 1
pour : 1
northeast : 2
rha : 19
anyth : 9
steadfast : 1
akzo : 4
philippin : 13
togeth : 11
micro : 2
exempt : 7
albeit : 1
smaller : 8
sensit : 6
challeng : 12
cabl : 16
ago : 45
properti : 3
rid : 2
responsibl : 1
retali : 96
painstak : 1
number : 12
rig : 2
saito : 5
identifi : 12
slack : 3
rio : 7
sprinkel : 9
shorter : 3
swiss : 6
tough : 20
exit : 1
system : 48
likelihood : 2
spot : 1
ibrd : 1
issu : 107
aid : 48
partial : 1
anyon : 1
other : 23
aim : 26
boca : 2
retain : 2
dismantl : 7
drastic : 3
air : 2
wendt : 2
slowdown : 3
local : 12
hypothet : 2
retail : 2
resum : 2
arifin : 1
uncommonli : 1
locat : 1
yield : 4
speak : 14
tender : 5
fisheri : 1
citi : 5
cite : 4
movement : 4
creditworthi : 2
uchida : 2
anxiou : 4
missouri : 6
correspond : 3
spur : 5
amongst : 1
mubarak : 1
complement : 2
whelan : 2
oblig : 8
ali : 1
all : 15
border : 5
bode : 1
read : 8
fidel : 1
todai : 68
touch : 4
rememb : 1
engend : 1
goodwil : 1
real : 28
mitsuru : 1
unit : 213
alreadi : 33
alan : 3
bodi : 13
collect : 5
gear : 5
rob : 1
reverber : 1
inequit : 1
resold : 2
favour : 19
roi : 2
shortli : 2
badli : 2
disappoint : 1
tacit : 1
resolv : 26
and : 56
vengeanc : 1
ration : 2
predict : 21
dump : 46
row : 25
aldo : 1
ani : 7
abroad : 23
financ : 55
mikhail : 2
relianc : 2
blunt : 1
tackl : 3
malcolm : 13
parliamentari : 6
anz : 1
qualifi : 3
dedic : 1
committe : 99
compromis : 1
ladenburg : 1
earmark : 1
unnecessari : 2
infight : 1
until : 2
fukushima : 1
prejudic : 2
comprehend : 1
reason : 32
unemploy : 13
thought : 5
concession : 1
turkei : 6
ship : 11
compos : 1
compon : 4
strateg : 1
jan : 5
annual : 33
alfr : 1
mistak : 1
resort : 7
boil : 1
siregar : 2
margin : 3
broke : 3
levin : 1
nail : 2
demand : 75
testifi : 5
mount : 5
egon : 1
cerier : 1
subtl : 1
letter : 19
grade : 1
volatil : 1
northwest : 1
janusz : 1
denman : 11
experienc : 1
thorvald : 1
tactic : 3
devis : 1
worth : 31
notion : 1
thereaft : 1
taken : 21
came : 13
grace : 1
capel : 2
where : 1
broader : 3
ark : 2
froze : 1
arm : 12
popular : 1
broaden : 2
vice : 18
countertrad : 29
holder : 1
suppress : 1
poverti : 1
broker : 5
asa : 1
call : 105
calm : 3
davignon : 1
wilson : 1
kick : 1
essenti : 5
shiv : 1
ask : 53
dilemma : 1
strength : 9
inflationari : 3
run : 23
enact : 5
bomb : 2
suprlu : 1
worri : 9
view : 17
either : 9
hajim : 5
shortag : 6
those : 2
apholt : 1
difficulti : 16
croo : 7
ludolf : 1
defens : 10
dure : 4
effici : 5
viciou : 1
longer : 10
introduc : 7
privat : 31
grasslei : 2
consum : 31
name : 11
budapest : 2
calrsson : 1
crop : 9
notabl : 4
shop : 1
mood : 3
boom : 3
alli : 5
reli : 9
book : 2
attract : 2
show : 99
cautious : 1
shot : 1
comput : 47
capac : 5
defend : 3
defenc : 2
introduct : 2
kuroda : 3
mont : 4
eshleman : 3
shoe : 3
negoti : 103
enabl : 7
yasuhiro : 20
thirdli : 2
bonn : 3
associ : 25
sarnei : 1
emphasi : 3
duti : 27
hosni : 1
bond : 27
target : 35
momentum : 5
tokyo : 104
repatri : 1
obstruct : 1
semiconduct : 3
irena : 1
nervous : 3
unti : 1
bonu : 2
suddenli : 3
underpin : 1
microprocessor : 1
leader : 31
ryavec : 2
displac : 1
jim : 6
cast : 1
haruo : 2
broad : 8
greater : 23
cash : 4
case : 26
sundai : 2
item : 19
toler : 6
dresdner : 2
destin : 3
consid : 64
slide : 4
moor : 11
explos : 1
style : 1
card : 2
care : 4
stockholm : 3
australian : 20
reluctantli : 2
pattern : 6
heighten : 2
harsh : 2
surplu : 307
terribl : 3
stockhold : 1
labour : 5
caus : 24
offshor : 2
freedom : 3
violat : 32
temporarili : 1
lebanon : 1
protect : 25
comecon : 11
stress : 18
consumpt : 9
more : 20
alon : 9
born : 1
furnitur : 1
dairi : 7
morn : 7
conductor : 1
mexico : 5
softwood : 2
disquiet : 1
harri : 2
brodi : 1
sacrific : 2
libyan : 2
shut : 1
lucr : 1
broadli : 2
simpli : 6
cloud : 2
georgia : 1
cawl : 4
ridden : 2
england : 1
profil : 4
kind : 12
daili : 4
shatter : 1
both : 5
most : 15
transfer : 16
unsur : 2
phrase : 1
voyag : 1
omin : 1
job : 13
cloth : 2
sponsor : 6
largest : 24
joe : 3
addi : 2
joi : 1
conting : 1
continu : 83
insert : 1
forbid : 3
highlight : 2
billion : 836
reject : 10
sag : 2
arrang : 3
sai : 108
downplai : 1
messag : 6
prerequisit : 1
profit : 9
sam : 1
roderick : 8
clout : 1
san : 3
rest : 12
amount : 15
move : 64
linkag : 1
ress : 2
saw : 10
inadequ : 1
also : 179
enough : 16
truli : 1
liabl : 1
differ : 16
spread : 4
histor : 2
situat : 20
illeg : 1
compli : 5
favor : 8
fertil : 4
fleme : 4
front : 8
plane : 3
stupid : 1
bad : 7
decre : 2
potenti : 19
bae : 7
bag : 1
luncheon : 2
complet : 11
ban : 13
offer : 23
categoris : 1
suffer : 3
bar : 4
pretoria : 1
draft : 18
complex : 1
mustapha : 1
narrowli : 1
angri : 4
posit : 35
amman : 1
secur : 43
greatli : 1
masaji : 1
plastic : 1
plant : 8
florio : 1
drive : 5
dean : 1
deal : 48
strong : 32
scheme : 1
allianc : 1
affect : 22
ministeri : 6
sea : 3
sixth : 1
see : 87
subsid : 2
servant : 1
inward : 1
ryzhkov : 4
civil : 5
barnei : 2
wheat : 10
subdu : 1
insuffici : 1
deleg : 31
sen : 10
set : 67
contain : 16
ealier : 1
jobless : 2
oecd : 35
featur : 4
offic : 31
armacost : 3
parti : 22
bet : 2
disinflationari : 2
guidanc : 3
contact : 3
pygk : 1
digit : 1
bfg : 1
sharehold : 2
franco : 1
complain : 11
neill : 1
she : 10
shi : 1
adjust : 60
western : 33
upham : 2
debt : 115
compat : 5
cassett : 3
compar : 72
hemispher : 2
compet : 9
deep : 5
stiffer : 2
delai : 3
maryland : 2
jersei : 1
depress : 5
sia : 1
funaro : 4
secondli : 2
faithfulli : 1
candid : 1
unfair : 47
ligero : 3
promot : 25
sir : 2
lump : 1
settl : 15
internation : 3
sit : 2
battl : 4
over : 9
missil : 5
six : 36
someth : 8
bound : 1
sergei : 2
dinner : 2
pariti : 1
luyten : 1
farmer : 11
avoid : 25
bia : 1
bid : 18
disburs : 1
fresh : 8
foundat : 5
itsu : 1
prompt : 8
big : 7
postpon : 3
heinrich : 1
expert : 5
select : 8
bailei : 2
sick : 2
bit : 3
obstacl : 5
output : 30
promis : 16
corner : 2
peterson : 2
subsidis : 5
decemb : 62
ordinari : 1
join : 16
midwest : 1
decis : 35
moder : 6
promin : 1
crown : 15
director : 25
vain : 1
tomorrow : 21
inevit : 2
foolish : 3
decid : 19
tigrel : 6
urgenc : 4
phil : 1
reduct : 26
moltk : 2
experi : 2
john : 10
begin : 23
judgement : 3
valu : 62
brought : 4
proportion : 1
weekend : 2
amaz : 1
neighbour : 3
invoic : 2
ethanol : 1
sieg : 3
world : 180
tradition : 2
urgent : 11
bankruptci : 1
consensu : 15
penal : 6
soybean : 12
side : 36
centuri : 4
break : 10
contempori : 1
viabil : 1
upgrad : 2
lawson : 9
itali : 5
comfort : 2
unrevis : 1
hide : 1
sensibl : 1
report : 134
auto : 5
constant : 1
unsel : 1
sign : 63
saviour : 1
cotton : 11
angel : 3
directli : 4
northern : 5
anger : 19
roger : 1
rupiah : 2
plaza : 4
high : 64
split : 1
sow : 1
pessimist : 3
petroleum : 7
administr : 68
level : 64
lever : 1
establish : 21
mammoth : 1
produt : 1
deter : 2
canberra : 4
bob : 5
boe : 1
morocco : 3
bog : 2
produc : 54
siew : 3
unilater : 12
behind : 6
underscor : 4
box : 1
bow : 3
switch : 6
total : 65
deni : 17
recipi : 1
pirat : 2
pennock : 1
immun : 1
involv : 21
dynam : 6
thoma : 1
smoulder : 1
tsomu : 2
kaw : 1
technic : 2
economist : 66
lobbi : 3
social : 4
wheel : 1
cross : 5
control : 36
drill : 4
highli : 8
comprehens : 7
hitachi : 4
extrem : 15
offici : 327
inland : 1
geographi : 1
upper : 3
stood : 6
injuri : 4
behalf : 1
belgolux : 2
environ : 6
scandal : 1
audienc : 1
vari : 1
czekierska : 1
hinder : 1
strengthen : 9
friend : 2
drawn : 5
sudanes : 1
karl : 1
stc : 3
stg : 41
collis : 1
dent : 1
australia : 25
hike : 1
accept : 13
cattlemen : 1
jopl : 4
mission : 22
autumn : 3
coalit : 3
sincer : 1
sub : 4
motor : 4
currenc : 92
secretari : 62
access : 34
fairchild : 5
languag : 1
sum : 1
sun : 1
kei : 34
current : 152
democrat : 44
atmospher : 2
mcdonnel : 1
implic : 3
civilian : 1
detroit : 1
audio : 1
dougla : 1
jose : 5
maker : 41
amid : 6
launch : 21
dept : 1
store : 1
intervent : 5
stori : 1
confirm : 7
emerg : 15
gallon : 4
bui : 53
appoint : 2
vast : 4
fourth : 37
but : 162
symbol : 2
agreeement : 1
expens : 9
express : 14
deterior : 13
zero : 3
makin : 1
airbu : 6
bethlehem : 2
subsequ : 2
ineffect : 2
baucu : 1
written : 8
provok : 7
sector : 24
passion : 1
delor : 2
dismai : 1
istanbul : 1
threshhold : 1
substitut : 6
prefenti : 1
taiwan : 118
brazilian : 15
ocean : 1
hint : 2
electr : 11
crumbl : 1
sinc : 48
higher : 23
protecionist : 1
manganes : 1
brazil : 57
idea : 11
nstc : 1
kim : 4
wellington : 4
clercq : 21
queri : 1
throughout : 3
forint : 4
inventori : 2
normal : 7
gradual : 6
dwindl : 1
socialist : 2
newspap : 7
russel : 2
disuss : 1
recognit : 3
recognis : 5
departur : 1
weaker : 8
weaken : 9
stone : 2
albertan : 1
drought : 1
bangladesh : 6
jeopardi : 2
individu : 5
reach : 47
justifi : 2
sach : 1
realiz : 2
react : 15
realis : 8
road : 7
review : 23
tighter : 4
asbesto : 1
sight : 1
weather : 6
unbalanc : 1
routin : 1
teeth : 2
tighten : 10
timber : 1
glasgow : 1
inseper : 1
goal : 11
banker : 6
nobodi : 2
drexel : 1
ongo : 1
opportun : 12
saba : 6
habr : 1
lightli : 1
intiti : 1
testimoni : 7
firebal : 2
eishiro : 2
reaan : 1
weak : 24
rock : 1
impress : 1
flaw : 1
climat : 4
assert : 1
flat : 9
peseta : 3
stabilis : 3
place : 21
leav : 21
regular : 2
someon : 1
provoc : 1
redefinit : 1
bigger : 4
suggest : 20
naphtha : 1
observ : 5
lead : 45
fraction : 1
inaccur : 3
expect : 140
assess : 6
molass : 1
behaviour : 2
antidump : 1
quasijudici : 1
argument : 6
reiter : 3
begun : 9
dozen : 1
roel : 1
divert : 2
plain : 1
hagu : 3
should : 6
draconian : 2
econom : 205
miniist : 1
tam : 2
copenhagen : 1
gephardt : 16
indirect : 2
reconsid : 1
hector : 2
salmon : 2
tax : 53
shibiao : 2
interim : 6
person : 14
shanker : 1
salvag : 6
week : 112
deliv : 5
distinct : 1
graham : 2
provis : 19
tune : 1
can : 8
cap : 2
onno : 1
delic : 1
satisfi : 8
car : 13
nkkt : 1
flex : 1
readjust : 2
februari : 232
alarm : 5
said : 1669
provid : 27
realli : 10
player : 1
smooth : 4
greatest : 3
balloon : 1
eiaj : 2
motion : 3
readi : 12
wedg : 2
weakest : 1
match : 1
fault : 3
idli : 2
versu : 4
hail : 1
categori : 2
fundment : 1
wedd : 1
delhi : 6
rival : 2
